hdu2020ShuDian/lab3/simulation/qsim/lab3.msim.vcd
$comment
	File created using the following command:
		vcd file lab3.msim.vcd -direction
$end
$date
	Tue May 18 20:41:58 2021
$end
$version
	ModelSim Version 10.5b
$end
$timescale
	1ps
$end

$scope module testff_vlg_vec_tst $end
$var reg 1 ! clk $end
$var reg 1 " clrn $end
$var reg 1 # d $end
$var reg 1 $ en $end
$var reg 1 % k $end
$var reg 1 & setn $end
$var wire 1 ' qd $end
$var wire 1 ( qik $end
$var wire 1 ) ql $end
$var wire 1 * qt $end

$scope module i1 $end
$var wire 1 + gnd $end
$var wire 1 , vcc $end
$var wire 1 - unknown $end
$var tri1 1 . devclrn $end
$var tri1 1 / devpor $end
$var tri1 1 0 devoe $end
$var wire 1 1 qd~output_o $end
$var wire 1 2 ql~output_o $end
$var wire 1 3 qik~output_o $end
$var wire 1 4 qt~output_o $end
$var wire 1 5 clrn~input_o $end
$var wire 1 6 setn~input_o $end
$var wire 1 7 inst~1_combout $end
$var wire 1 8 clk~input_o $end
$var wire 1 9 clk~inputclkctrl_outclk $end
$var wire 1 : d~input_o $end
$var wire 1 ; inst~3_combout $end
$var wire 1 < inst~0_combout $end
$var wire 1 = inst~0clkctrl_outclk $end
$var wire 1 > inst~_emulated_q $end
$var wire 1 ? inst~2_combout $end
$var wire 1 @ inst1~combout $end
$var wire 1 A k~input_o $end
$var wire 1 B inst2~1_combout $end
$var wire 1 C inst2~_emulated_q $end
$var wire 1 D inst2~0_combout $end
$var wire 1 E inst3~0_combout $end
$var wire 1 F en~input_o $end
$var wire 1 G inst3~q $end
$upscope $end
$upscope $end
$enddefinitions $end
#0
$dumpvars
0!
1"
0#
x$
x%
1&
x'
x(
x)
0*
0+
1,
x-
1.
1/
10
x1
x2
x3
04
15
16
x7
08
09
0:
x;
0<
0=
0>
x?
x@
xA
xB
0C
xD
1E
xF
0G
$end
#5000
1!
18
19
0@
02
0)
xC
x>
#10000
0!
08
09
#15000
1!
18
19
#20000
1#
0!
1:
08
09
#25000
1!
18
19
1@
12
1)
#30000
0!
08
09
#35000
1!
18
19
#40000
0#
0!
0:
08
09
#45000
1!
18
19
0@
02
0)
#50000
0!
08
09
#55000
1!
18
19
#60000
1#
0!
1:
08
09
#65000
1!
18
19
1@
12
1)
#70000
0!
08
09
#75000
1!
18
19
#80000
0#
0!
0:
08
09
#85000
1!
18
19
0@
02
0)
#90000
0!
08
09
#95000
1!
18
19
#100000
1#
0!
1:
08
09
#105000
1!
18
19
1@
12
1)
#110000
0!
08
09
#115000
1!
18
19
#120000
0#
0!
0:
08
09
#125000
1!
18
19
0@
02
0)
#130000
0!
08
09
#135000
1!
18
19
#140000
1#
0!
1:
08
09
#145000
1!
18
19
1@
12
1)
#150000
0!
08
09
#155000
1!
18
19
#160000
0#
0!
0:
08
09
#165000
1!
18
19
0@
02
0)
#170000
0!
08
09
#175000
1!
18
19
#180000
1#
0!
1:
08
09
#185000
1!
18
19
1@
12
1)
#190000
0!
08
09
#195000
1!
18
19
#200000
0#
0!
0:
08
09
#205000
1!
18
19
0@
02
0)
#210000
0!
08
09
#215000
1!
18
19
#220000
1#
0!
1:
08
09
#225000
1!
18
19
1@
12
1)
#230000
0!
08
09
#235000
1!
18
19
#240000
0#
0!
0:
08
09
#245000
1!
18
19
0@
02
0)
#250000
0!
08
09
#255000
1!
18
19
#260000
1#
0!
1:
08
09
#265000
1!
18
19
1@
12
1)
#270000
0!
08
09
#275000
1!
18
19
#280000
0#
0!
0:
08
09
#285000
1!
18
19
0@
02
0)
#290000
0!
08
09
#295000
1!
18
19
#300000
1#
0!
1:
08
09
#305000
1!
18
19
1@
12
1)
#310000
0!
08
09
#315000
1!
18
19
#320000
0#
0!
0:
08
09
#325000
1!
18
19
0@
02
0)
#330000
0!
08
09
#335000
1!
18
19
#340000
1#
0!
1:
08
09
#345000
1!
18
19
1@
12
1)
#350000
0!
08
09
#355000
1!
18
19
#360000
0#
0!
0:
08
09
#365000
1!
18
19
0@
02
0)
#370000
0!
08
09
#375000
1!
18
19
#380000
1#
0!
1:
08
09
#385000
1!
18
19
1@
12
1)
#390000
0!
08
09
#395000
1!
18
19
#400000
0#
0!
0:
08
09
#405000
1!
18
19
0@
02
0)
#410000
0!
08
09
#415000
1!
18
19
#420000
1#
0!
1:
08
09
#425000
1!
18
19
1@
12
1)
#430000
0!
08
09
#435000
1!
18
19
#440000
0#
0!
0:
08
09
#445000
1!
18
19
0@
02
0)
#450000
0!
08
09
#455000
1!
18
19
#460000
1#
0!
1:
08
09
#465000
1!
18
19
1@
12
1)
#470000
0!
08
09
#475000
1!
18
19
#480000
0#
0!
0:
08
09
#485000
1!
18
19
0@
02
0)
#490000
0!
08
09
#495000
1!
18
19
#500000
1#
0!
1:
08
09
#505000
1!
18
19
1@
12
1)
#510000
0!
08
09
#515000
1!
18
19
#520000
0#
0!
0:
08
09
#525000
1!
18
19
0@
02
0)
#530000
0!
08
09
#535000
1!
18
19
#540000
1#
0!
1:
08
09
#545000
1!
18
19
1@
12
1)
#550000
0!
08
09
#555000
1!
18
19
#560000
0#
0!
0:
08
09
#565000
1!
18
19
0@
02
0)
#570000
0!
08
09
#575000
1!
18
19
#580000
1#
0!
1:
08
09
#585000
1!
18
19
1@
12
1)
#590000
0!
08
09
#595000
1!
18
19
#600000
0#
0!
0:
08
09
#605000
1!
18
19
0@
02
0)
#610000
0!
08
09
#615000
1!
18
19
#620000
1#
0!
1:
08
09
#625000
1!
18
19
1@
12
1)
#630000
0!
08
09
#635000
1!
18
19
#640000
0#
0!
0:
08
09
#645000
1!
18
19
0@
02
0)
#650000
0!
08
09
#655000
1!
18
19
#660000
1#
0!
1:
08
09
#665000
1!
18
19
1@
12
1)
#670000
0!
08
09
#675000
1!
18
19
#680000
0#
0!
0:
08
09
#685000
1!
18
19
0@
02
0)
#690000
0!
08
09
#695000
1!
18
19
#700000
1#
0!
1:
08
09
#705000
1!
18
19
1@
12
1)
#710000
0!
08
09
#715000
1!
18
19
#720000
0#
0!
0:
08
09
#725000
1!
18
19
0@
02
0)
#730000
0!
08
09
#735000
1!
18
19
#740000
1#
0!
1:
08
09
#745000
1!
18
19
1@
12
1)
#750000
0!
08
09
#755000
1!
18
19
#760000
0#
0!
0:
08
09
#765000
1!
18
19
0@
02
0)
#770000
0!
08
09
#775000
1!
18
19
#780000
1#
0!
1:
08
09
#785000
1!
18
19
1@
12
1)
#790000
0!
08
09
#795000
1!
18
19
#800000
0#
0!
0:
08
09
#805000
1!
18
19
0@
02
0)
#810000
0!
08
09
#815000
1!
18
19
#820000
1#
0!
1:
08
09
#825000
1!
18
19
1@
12
1)
#830000
0!
08
09
#835000
1!
18
19
#840000
0#
0!
0:
08
09
#845000
1!
18
19
0@
02
0)
#850000
0!
08
09
#855000
1!
18
19
#860000
1#
0!
1:
08
09
#865000
1!
18
19
1@
12
1)
#870000
0!
08
09
#875000
1!
18
19
#880000
0#
0!
0:
08
09
#885000
1!
18
19
0@
02
0)
#890000
0!
08
09
#895000
1!
18
19
#900000
1#
0!
1:
08
09
#905000
1!
18
19
1@
12
1)
#910000
0!
08
09
#915000
1!
18
19
#920000
0#
0!
0:
08
09
#925000
1!
18
19
0@
02
0)
#930000
0!
08
09
#935000
1!
18
19
#940000
1#
0!
1:
08
09
#945000
1!
18
19
1@
12
1)
#950000
0!
08
09
#955000
1!
18
19
#960000
0#
0!
0:
08
09
#965000
1!
18
19
0@
02
0)
#970000
0!
08
09
#975000
1!
18
19
#980000
1#
0!
1:
08
09
#985000
1!
18
19
1@
12
1)
#990000
0!
08
09
#995000
1!
18
19
