hdu2020ShuDian/lab3/simulation/qsim/lab3.msim.vcd
$comment
	File created using the following command:
		vcd file lab3.msim.vcd -direction
$end
$date
	Tue Jun 01 18:57:56 2021
$end
$version
	ModelSim Version 10.5b
$end
$timescale
	1ps
$end

$scope module test595_vlg_vec_tst $end
$var reg 1 ! CLK $end
$var reg 1 " D0 $end
$var reg 1 # D1 $end
$var reg 1 $ D2 $end
$var reg 1 % D3 $end
$var reg 1 & ENA $end
$var reg 1 ' LOAD $end
$var reg 1 ( SI $end
$var wire 1 ) Q0 $end
$var wire 1 * Q1 $end
$var wire 1 + Q2 $end
$var wire 1 , Q3 $end

$scope module i1 $end
$var wire 1 - gnd $end
$var wire 1 . vcc $end
$var wire 1 / unknown $end
$var tri1 1 0 devclrn $end
$var tri1 1 1 devpor $end
$var tri1 1 2 devoe $end
$var wire 1 3 Q0~output_o $end
$var wire 1 4 Q1~output_o $end
$var wire 1 5 Q2~output_o $end
$var wire 1 6 Q3~output_o $end
$var wire 1 7 CLK~input_o $end
$var wire 1 8 CLK~inputclkctrl_outclk $end
$var wire 1 9 SI~input_o $end
$var wire 1 : LOAD~input_o $end
$var wire 1 ; D0~input_o $end
$var wire 1 < inst|inst|5~0_combout $end
$var wire 1 = ENA~input_o $end
$var wire 1 > inst|inst1~q $end
$var wire 1 ? D1~input_o $end
$var wire 1 @ inst1|inst|5~0_combout $end
$var wire 1 A inst1|inst1~q $end
$var wire 1 B D2~input_o $end
$var wire 1 C inst2|inst|5~0_combout $end
$var wire 1 D inst2|inst1~q $end
$var wire 1 E D3~input_o $end
$var wire 1 F inst3|inst|5~0_combout $end
$var wire 1 G inst3|inst1~q $end
$upscope $end
$upscope $end
$enddefinitions $end
#0
$dumpvars
0!
1"
1#
0$
1%
1&
1'
1(
0)
0*
0+
0,
0-
1.
x/
10
11
12
03
04
05
06
07
08
19
1:
1;
1<
1=
0>
1?
0@
0A
0B
0C
0D
1E
0F
0G
$end
#5000
1!
17
18
1>
13
1)
1@
#10000
0(
0!
09
07
08
0<
#15000
1!
17
18
1A
0>
03
14
1*
0)
1C
0@
#20000
1(
0!
19
07
08
1<
#25000
1!
17
18
1D
0A
1>
13
04
15
1+
0*
1)
1F
0C
1@
#30000
0(
0!
09
07
08
0<
#35000
1!
17
18
1G
0D
1A
0>
03
14
05
16
1,
0+
1*
0)
0F
1C
0@
#40000
1(
0!
19
07
08
1<
#45000
1!
17
18
0G
1D
0A
1>
13
04
15
06
0,
1+
0*
1)
1F
0C
1@
#50000
0(
0!
09
07
08
0<
#55000
1!
17
18
1G
0D
1A
0>
03
14
05
16
1,
0+
1*
0)
0F
1C
0@
#60000
1(
0!
19
07
08
1<
#65000
1!
17
18
0G
1D
0A
1>
13
04
15
06
0,
1+
0*
1)
1F
0C
1@
#70000
0(
0!
09
07
08
0<
#75000
1!
17
18
1G
0D
1A
0>
03
14
05
16
1,
0+
1*
0)
0F
1C
0@
#80000
1(
0!
19
07
08
1<
#85000
1!
17
18
0G
1D
0A
1>
13
04
15
06
0,
1+
0*
1)
1F
0C
1@
#90000
0'
0(
0!
0:
09
07
08
#95000
1!
17
18
1G
0D
1A
14
05
16
1,
0+
1*
#100000
1'
1(
0!
1:
19
07
08
0F
1C
#105000
1!
17
18
0G
1D
15
06
0,
1+
1F
#110000
0(
0!
09
07
08
0<
#115000
1!
17
18
1G
0>
03
16
1,
0)
0@
#120000
1(
0!
19
07
08
1<
#125000
1!
17
18
0A
1>
13
04
0*
1)
0C
1@
#130000
0(
0!
09
07
08
0<
#135000
1!
17
18
0D
1A
0>
03
14
05
0+
1*
0)
0F
1C
0@
#140000
1(
0!
19
07
08
1<
#145000
1!
17
18
0G
1D
0A
1>
13
04
15
06
0,
1+
0*
1)
1F
0C
1@
#150000
0(
0!
09
07
08
0<
#155000
1!
17
18
1G
0D
1A
0>
03
14
05
16
1,
0+
1*
0)
0F
1C
0@
#160000
1(
0!
19
07
08
1<
#165000
1!
17
18
0G
1D
0A
1>
13
04
15
06
0,
1+
0*
1)
1F
0C
1@
#170000
0(
0!
09
07
08
0<
#175000
1!
17
18
1G
0D
1A
0>
03
14
05
16
1,
0+
1*
0)
0F
1C
0@
#180000
1(
0!
19
07
08
1<
#185000
1!
17
18
0G
1D
0A
1>
13
04
15
06
0,
1+
0*
1)
1F
0C
1@
#190000
0'
0(
0!
0:
09
07
08
#195000
1!
17
18
1G
0D
1A
14
05
16
1,
0+
1*
#200000
1'
1(
0!
1:
19
07
08
0F
1C
#205000
1!
17
18
0G
1D
15
06
0,
1+
1F
#210000
0(
0!
09
07
08
0<
#215000
1!
17
18
1G
0>
03
16
1,
0)
0@
#220000
1(
0!
19
07
08
1<
#225000
1!
17
18
0A
1>
13
04
0*
1)
0C
1@
#230000
0(
0!
09
07
08
0<
#235000
1!
17
18
0D
1A
0>
03
14
05
0+
1*
0)
0F
1C
0@
#240000
1(
0!
19
07
08
1<
#245000
1!
17
18
0G
1D
0A
1>
13
04
15
06
0,
1+
0*
1)
1F
0C
1@
#250000
0(
0!
09
07
08
0<
#255000
1!
17
18
1G
0D
1A
0>
03
14
05
16
1,
0+
1*
0)
0F
1C
0@
#260000
1(
0!
19
07
08
1<
#265000
1!
17
18
0G
1D
0A
1>
13
04
15
06
0,
1+
0*
1)
1F
0C
1@
#270000
0(
0!
09
07
08
0<
#275000
1!
17
18
1G
0D
1A
0>
03
14
05
16
1,
0+
1*
0)
0F
1C
0@
#280000
1(
0!
19
07
08
1<
#285000
1!
17
18
0G
1D
0A
1>
13
04
15
06
0,
1+
0*
1)
1F
0C
1@
#290000
0'
0(
0!
0:
09
07
08
#295000
1!
17
18
1G
0D
1A
14
05
16
1,
0+
1*
#300000
1'
1(
0!
1:
19
07
08
0F
1C
#305000
1!
17
18
0G
1D
15
06
0,
1+
1F
#310000
0(
0!
09
07
08
0<
#315000
1!
17
18
1G
0>
03
16
1,
0)
0@
#320000
1(
0!
19
07
08
1<
#325000
1!
17
18
0A
1>
13
04
0*
1)
0C
1@
#330000
0(
0!
09
07
08
0<
#335000
1!
17
18
0D
1A
0>
03
14
05
0+
1*
0)
0F
1C
0@
#340000
1(
0!
19
07
08
1<
#345000
1!
17
18
0G
1D
0A
1>
13
04
15
06
0,
1+
0*
1)
1F
0C
1@
#350000
0(
0!
09
07
08
0<
#355000
1!
17
18
1G
0D
1A
0>
03
14
05
16
1,
0+
1*
0)
0F
1C
0@
#360000
1(
0!
19
07
08
1<
#365000
1!
17
18
0G
1D
0A
1>
13
04
15
06
0,
1+
0*
1)
1F
0C
1@
#370000
0(
0!
09
07
08
0<
#375000
1!
17
18
1G
0D
1A
0>
03
14
05
16
1,
0+
1*
0)
0F
1C
0@
#380000
1(
0!
19
07
08
1<
#385000
1!
17
18
0G
1D
0A
1>
13
04
15
06
0,
1+
0*
1)
1F
0C
1@
#390000
0'
0(
0!
0:
09
07
08
#395000
1!
17
18
1G
0D
1A
14
05
16
1,
0+
1*
#400000
1'
1(
0!
1:
19
07
08
0F
1C
#405000
1!
17
18
0G
1D
15
06
0,
1+
1F
#410000
0(
0!
09
07
08
0<
#415000
1!
17
18
1G
0>
03
16
1,
0)
0@
#420000
1(
0!
19
07
08
1<
#425000
1!
17
18
0A
1>
13
04
0*
1)
0C
1@
#430000
0(
0!
09
07
08
0<
#435000
1!
17
18
0D
1A
0>
03
14
05
0+
1*
0)
0F
1C
0@
#440000
1(
0!
19
07
08
1<
#445000
1!
17
18
0G
1D
0A
1>
13
04
15
06
0,
1+
0*
1)
1F
0C
1@
#450000
0(
0!
09
07
08
0<
#455000
1!
17
18
1G
0D
1A
0>
03
14
05
16
1,
0+
1*
0)
0F
1C
0@
#460000
1(
0!
19
07
08
1<
#465000
1!
17
18
0G
1D
0A
1>
13
04
15
06
0,
1+
0*
1)
1F
0C
1@
#470000
0(
0!
09
07
08
0<
#475000
1!
17
18
1G
0D
1A
0>
03
14
05
16
1,
0+
1*
0)
0F
1C
0@
#480000
1(
0!
19
07
08
1<
#485000
1!
17
18
0G
1D
0A
1>
13
04
15
06
0,
1+
0*
1)
1F
0C
1@
#490000
0'
0(
0!
0:
09
07
08
#495000
1!
17
18
1G
0D
1A
14
05
16
1,
0+
1*
#500000
1'
1(
0!
1:
19
07
08
0F
1C
#505000
1!
17
18
0G
1D
15
06
0,
1+
1F
#510000
0(
0!
09
07
08
0<
#515000
1!
17
18
1G
0>
03
16
1,
0)
0@
#520000
1(
0!
19
07
08
1<
#525000
1!
17
18
0A
1>
13
04
0*
1)
0C
1@
#530000
0(
0!
09
07
08
0<
#535000
1!
17
18
0D
1A
0>
03
14
05
0+
1*
0)
0F
1C
0@
#540000
1(
0!
19
07
08
1<
#545000
1!
17
18
0G
1D
0A
1>
13
04
15
06
0,
1+
0*
1)
1F
0C
1@
#550000
0(
0!
09
07
08
0<
#555000
1!
17
18
1G
0D
1A
0>
03
14
05
16
1,
0+
1*
0)
0F
1C
0@
#560000
1(
0!
19
07
08
1<
#565000
1!
17
18
0G
1D
0A
1>
13
04
15
06
0,
1+
0*
1)
1F
0C
1@
#570000
0(
0!
09
07
08
0<
#575000
1!
17
18
1G
0D
1A
0>
03
14
05
16
1,
0+
1*
0)
0F
1C
0@
#580000
1(
0!
19
07
08
1<
#585000
1!
17
18
0G
1D
0A
1>
13
04
15
06
0,
1+
0*
1)
1F
0C
1@
#590000
0'
0(
0!
0:
09
07
08
#595000
1!
17
18
1G
0D
1A
14
05
16
1,
0+
1*
#600000
1'
1(
0!
1:
19
07
08
0F
1C
#605000
1!
17
18
0G
1D
15
06
0,
1+
1F
#610000
0(
0!
09
07
08
0<
#615000
1!
17
18
1G
0>
03
16
1,
0)
0@
#620000
1(
0!
19
07
08
1<
#625000
1!
17
18
0A
1>
13
04
0*
1)
0C
1@
#630000
0(
0!
09
07
08
0<
#635000
1!
17
18
0D
1A
0>
03
14
05
0+
1*
0)
0F
1C
0@
#640000
1(
0!
19
07
08
1<
#645000
1!
17
18
0G
1D
0A
1>
13
04
15
06
0,
1+
0*
1)
1F
0C
1@
#650000
0(
0!
09
07
08
0<
#655000
1!
17
18
1G
0D
1A
0>
03
14
05
16
1,
0+
1*
0)
0F
1C
0@
#660000
1(
0!
19
07
08
1<
#665000
1!
17
18
0G
1D
0A
1>
13
04
15
06
0,
1+
0*
1)
1F
0C
1@
#670000
0(
0!
09
07
08
0<
#675000
1!
17
18
1G
0D
1A
0>
03
14
05
16
1,
0+
1*
0)
0F
1C
0@
#680000
1(
0!
19
07
08
1<
#685000
1!
17
18
0G
1D
0A
1>
13
04
15
06
0,
1+
0*
1)
1F
0C
1@
#690000
0'
0(
0!
0:
09
07
08
#695000
1!
17
18
1G
0D
1A
14
05
16
1,
0+
1*
#700000
1'
1(
0!
1:
19
07
08
0F
1C
#705000
1!
17
18
0G
1D
15
06
0,
1+
1F
#710000
0(
0!
09
07
08
0<
#715000
1!
17
18
1G
0>
03
16
1,
0)
0@
#720000
1(
0!
19
07
08
1<
#725000
1!
17
18
0A
1>
13
04
0*
1)
0C
1@
#730000
0(
0!
09
07
08
0<
#735000
1!
17
18
0D
1A
0>
03
14
05
0+
1*
0)
0F
1C
0@
#740000
1(
0!
19
07
08
1<
#745000
1!
17
18
0G
1D
0A
1>
13
04
15
06
0,
1+
0*
1)
1F
0C
1@
#750000
0(
0!
09
07
08
0<
#755000
1!
17
18
1G
0D
1A
0>
03
14
05
16
1,
0+
1*
0)
0F
1C
0@
#760000
1(
0!
19
07
08
1<
#765000
1!
17
18
0G
1D
0A
1>
13
04
15
06
0,
1+
0*
1)
1F
0C
1@
#770000
0(
0!
09
07
08
0<
#775000
1!
17
18
1G
0D
1A
0>
03
14
05
16
1,
0+
1*
0)
0F
1C
0@
#780000
1(
0!
19
07
08
1<
#785000
1!
17
18
0G
1D
0A
1>
13
04
15
06
0,
1+
0*
1)
1F
0C
1@
#790000
0'
0(
0!
0:
09
07
08
#795000
1!
17
18
1G
0D
1A
14
05
16
1,
0+
1*
#800000
1'
1(
0!
1:
19
07
08
0F
1C
#805000
1!
17
18
0G
1D
15
06
0,
1+
1F
#810000
0(
0!
09
07
08
0<
#815000
1!
17
18
1G
0>
03
16
1,
0)
0@
#820000
1(
0!
19
07
08
1<
#825000
1!
17
18
0A
1>
13
04
0*
1)
0C
1@
#830000
0(
0!
09
07
08
0<
#835000
1!
17
18
0D
1A
0>
03
14
05
0+
1*
0)
0F
1C
0@
#840000
1(
0!
19
07
08
1<
#845000
1!
17
18
0G
1D
0A
1>
13
04
15
06
0,
1+
0*
1)
1F
0C
1@
#850000
0(
0!
09
07
08
0<
#855000
1!
17
18
1G
0D
1A
0>
03
14
05
16
1,
0+
1*
0)
0F
1C
0@
#860000
1(
0!
19
07
08
1<
#865000
1!
17
18
0G
1D
0A
1>
13
04
15
06
0,
1+
0*
1)
1F
0C
1@
#870000
0(
0!
09
07
08
0<
#875000
1!
17
18
1G
0D
1A
0>
03
14
05
16
1,
0+
1*
0)
0F
1C
0@
#880000
1(
0!
19
07
08
1<
#885000
1!
17
18
0G
1D
0A
1>
13
04
15
06
0,
1+
0*
1)
1F
0C
1@
#890000
0'
0(
0!
0:
09
07
08
#895000
1!
17
18
1G
0D
1A
14
05
16
1,
0+
1*
#900000
1'
1(
0!
1:
19
07
08
0F
1C
#905000
1!
17
18
0G
1D
15
06
0,
1+
1F
#910000
0(
0!
09
07
08
0<
#915000
1!
17
18
1G
0>
03
16
1,
0)
0@
#920000
1(
0!
19
07
08
1<
#925000
1!
17
18
0A
1>
13
04
0*
1)
0C
1@
#930000
0(
0!
09
07
08
0<
#935000
1!
17
18
0D
1A
0>
03
14
05
0+
1*
0)
0F
1C
0@
#940000
1(
0!
19
07
08
1<
#945000
1!
17
18
0G
1D
0A
1>
13
04
15
06
0,
1+
0*
1)
1F
0C
1@
#950000
0(
0!
09
07
08
0<
#955000
1!
17
18
1G
0D
1A
0>
03
14
05
16
1,
0+
1*
0)
0F
1C
0@
#960000
1(
0!
19
07
08
1<
#965000
1!
17
18
0G
1D
0A
1>
13
04
15
06
0,
1+
0*
1)
1F
0C
1@
#970000
0(
0!
09
07
08
0<
#975000
1!
17
18
1G
0D
1A
0>
03
14
05
16
1,
0+
1*
0)
0F
1C
0@
#980000
1(
0!
19
07
08
1<
#985000
1!
17
18
0G
1D
0A
1>
13
04
15
06
0,
1+
0*
1)
1F
0C
1@
#990000
0'
0(
0!
0:
09
07
08
#995000
1!
17
18
1G
0D
1A
14
05
16
1,
0+
1*
