杭电2021数字系统与处理器1/lab5/simulation/qsim/lab5.msim.vcd
$comment
	File created using the following command:
		vcd file lab5.msim.vcd -direction
$end
$date
	Tue Jun 08 20:35:29 2021
$end
$version
	ModelSim Version 10.5b
$end
$timescale
	1ps
$end

$scope module pc16_vlg_vec_tst $end
$var reg 1 ! clk $end
$var reg 16 " pc_base [15:0] $end
$var reg 1 # pc_en $end
$var reg 1 $ pc_load $end
$var reg 8 % pc_offset [7:0] $end
$var reg 1 & pc_sel $end
$var reg 1 ' rst $end
$var wire 1 ( q [15] $end
$var wire 1 ) q [14] $end
$var wire 1 * q [13] $end
$var wire 1 + q [12] $end
$var wire 1 , q [11] $end
$var wire 1 - q [10] $end
$var wire 1 . q [9] $end
$var wire 1 / q [8] $end
$var wire 1 0 q [7] $end
$var wire 1 1 q [6] $end
$var wire 1 2 q [5] $end
$var wire 1 3 q [4] $end
$var wire 1 4 q [3] $end
$var wire 1 5 q [2] $end
$var wire 1 6 q [1] $end
$var wire 1 7 q [0] $end

$scope module i1 $end
$var wire 1 8 gnd $end
$var wire 1 9 vcc $end
$var wire 1 : unknown $end
$var tri1 1 ; devclrn $end
$var tri1 1 < devpor $end
$var tri1 1 = devoe $end
$var wire 1 > q[15]~output_o $end
$var wire 1 ? q[14]~output_o $end
$var wire 1 @ q[13]~output_o $end
$var wire 1 A q[12]~output_o $end
$var wire 1 B q[11]~output_o $end
$var wire 1 C q[10]~output_o $end
$var wire 1 D q[9]~output_o $end
$var wire 1 E q[8]~output_o $end
$var wire 1 F q[7]~output_o $end
$var wire 1 G q[6]~output_o $end
$var wire 1 H q[5]~output_o $end
$var wire 1 I q[4]~output_o $end
$var wire 1 J q[3]~output_o $end
$var wire 1 K q[2]~output_o $end
$var wire 1 L q[1]~output_o $end
$var wire 1 M q[0]~output_o $end
$var wire 1 N clk~input_o $end
$var wire 1 O inst3|LPM_COUNTER_component|auto_generated|counter_comb_bita0~combout $end
$var wire 1 P pc_offset[0]~input_o $end
$var wire 1 Q pc_base[0]~input_o $end
$var wire 1 R inst|LPM_ADD_SUB_component|auto_generated|result[0]~0_combout $end
$var wire 1 S pc_sel~input_o $end
$var wire 1 T inst2|LPM_MUX_component|auto_generated|result_node[0]~15_combout $end
$var wire 1 U inst1|LPM_ADD_SUB_component|auto_generated|result[0]~0_combout $end
$var wire 1 V rst~input_o $end
$var wire 1 W pc_load~input_o $end
$var wire 1 X pc_en~input_o $end
$var wire 1 Y inst3|LPM_COUNTER_component|auto_generated|_~0_combout $end
$var wire 1 Z inst3|LPM_COUNTER_component|auto_generated|counter_comb_bita0~COUT $end
$var wire 1 [ inst3|LPM_COUNTER_component|auto_generated|counter_comb_bita1~combout $end
$var wire 1 \ pc_offset[1]~input_o $end
$var wire 1 ] pc_base[1]~input_o $end
$var wire 1 ^ inst|LPM_ADD_SUB_component|auto_generated|result[0]~1 $end
$var wire 1 _ inst|LPM_ADD_SUB_component|auto_generated|result[1]~2_combout $end
$var wire 1 ` inst2|LPM_MUX_component|auto_generated|result_node[1]~14_combout $end
$var wire 1 a inst1|LPM_ADD_SUB_component|auto_generated|result[0]~1 $end
$var wire 1 b inst1|LPM_ADD_SUB_component|auto_generated|result[1]~2_combout $end
$var wire 1 c inst3|LPM_COUNTER_component|auto_generated|counter_comb_bita1~COUT $end
$var wire 1 d inst3|LPM_COUNTER_component|auto_generated|counter_comb_bita2~combout $end
$var wire 1 e pc_offset[2]~input_o $end
$var wire 1 f pc_base[2]~input_o $end
$var wire 1 g inst|LPM_ADD_SUB_component|auto_generated|result[1]~3 $end
$var wire 1 h inst|LPM_ADD_SUB_component|auto_generated|result[2]~4_combout $end
$var wire 1 i inst2|LPM_MUX_component|auto_generated|result_node[2]~13_combout $end
$var wire 1 j inst1|LPM_ADD_SUB_component|auto_generated|result[1]~3 $end
$var wire 1 k inst1|LPM_ADD_SUB_component|auto_generated|result[2]~4_combout $end
$var wire 1 l inst3|LPM_COUNTER_component|auto_generated|counter_comb_bita2~COUT $end
$var wire 1 m inst3|LPM_COUNTER_component|auto_generated|counter_comb_bita3~combout $end
$var wire 1 n pc_offset[3]~input_o $end
$var wire 1 o pc_base[3]~input_o $end
$var wire 1 p inst|LPM_ADD_SUB_component|auto_generated|result[2]~5 $end
$var wire 1 q inst|LPM_ADD_SUB_component|auto_generated|result[3]~6_combout $end
$var wire 1 r inst2|LPM_MUX_component|auto_generated|result_node[3]~12_combout $end
$var wire 1 s inst1|LPM_ADD_SUB_component|auto_generated|result[2]~5 $end
$var wire 1 t inst1|LPM_ADD_SUB_component|auto_generated|result[3]~6_combout $end
$var wire 1 u inst3|LPM_COUNTER_component|auto_generated|counter_comb_bita3~COUT $end
$var wire 1 v inst3|LPM_COUNTER_component|auto_generated|counter_comb_bita4~combout $end
$var wire 1 w pc_offset[4]~input_o $end
$var wire 1 x pc_base[4]~input_o $end
$var wire 1 y inst|LPM_ADD_SUB_component|auto_generated|result[3]~7 $end
$var wire 1 z inst|LPM_ADD_SUB_component|auto_generated|result[4]~8_combout $end
$var wire 1 { inst2|LPM_MUX_component|auto_generated|result_node[4]~11_combout $end
$var wire 1 | inst1|LPM_ADD_SUB_component|auto_generated|result[3]~7 $end
$var wire 1 } inst1|LPM_ADD_SUB_component|auto_generated|result[4]~8_combout $end
$var wire 1 ~ inst3|LPM_COUNTER_component|auto_generated|counter_comb_bita4~COUT $end
$var wire 1 !! inst3|LPM_COUNTER_component|auto_generated|counter_comb_bita5~combout $end
$var wire 1 "! pc_offset[5]~input_o $end
$var wire 1 #! pc_base[5]~input_o $end
$var wire 1 $! inst|LPM_ADD_SUB_component|auto_generated|result[4]~9 $end
$var wire 1 %! inst|LPM_ADD_SUB_component|auto_generated|result[5]~10_combout $end
$var wire 1 &! inst2|LPM_MUX_component|auto_generated|result_node[5]~10_combout $end
$var wire 1 '! inst1|LPM_ADD_SUB_component|auto_generated|result[4]~9 $end
$var wire 1 (! inst1|LPM_ADD_SUB_component|auto_generated|result[5]~10_combout $end
$var wire 1 )! inst3|LPM_COUNTER_component|auto_generated|counter_comb_bita5~COUT $end
$var wire 1 *! inst3|LPM_COUNTER_component|auto_generated|counter_comb_bita6~combout $end
$var wire 1 +! pc_offset[6]~input_o $end
$var wire 1 ,! pc_base[6]~input_o $end
$var wire 1 -! inst|LPM_ADD_SUB_component|auto_generated|result[5]~11 $end
$var wire 1 .! inst|LPM_ADD_SUB_component|auto_generated|result[6]~12_combout $end
$var wire 1 /! inst2|LPM_MUX_component|auto_generated|result_node[6]~9_combout $end
$var wire 1 0! inst1|LPM_ADD_SUB_component|auto_generated|result[5]~11 $end
$var wire 1 1! inst1|LPM_ADD_SUB_component|auto_generated|result[6]~12_combout $end
$var wire 1 2! inst3|LPM_COUNTER_component|auto_generated|counter_comb_bita6~COUT $end
$var wire 1 3! inst3|LPM_COUNTER_component|auto_generated|counter_comb_bita7~combout $end
$var wire 1 4! pc_offset[7]~input_o $end
$var wire 1 5! pc_base[7]~input_o $end
$var wire 1 6! inst|LPM_ADD_SUB_component|auto_generated|result[6]~13 $end
$var wire 1 7! inst|LPM_ADD_SUB_component|auto_generated|result[7]~14_combout $end
$var wire 1 8! inst2|LPM_MUX_component|auto_generated|result_node[7]~8_combout $end
$var wire 1 9! inst1|LPM_ADD_SUB_component|auto_generated|result[6]~13 $end
$var wire 1 :! inst1|LPM_ADD_SUB_component|auto_generated|result[7]~14_combout $end
$var wire 1 ;! inst3|LPM_COUNTER_component|auto_generated|counter_comb_bita7~COUT $end
$var wire 1 <! inst3|LPM_COUNTER_component|auto_generated|counter_comb_bita8~combout $end
$var wire 1 =! pc_base[8]~input_o $end
$var wire 1 >! inst|LPM_ADD_SUB_component|auto_generated|result[7]~15 $end
$var wire 1 ?! inst|LPM_ADD_SUB_component|auto_generated|result[8]~16_combout $end
$var wire 1 @! inst2|LPM_MUX_component|auto_generated|result_node[8]~7_combout $end
$var wire 1 A! inst1|LPM_ADD_SUB_component|auto_generated|result[7]~15 $end
$var wire 1 B! inst1|LPM_ADD_SUB_component|auto_generated|result[8]~16_combout $end
$var wire 1 C! inst3|LPM_COUNTER_component|auto_generated|counter_comb_bita8~COUT $end
$var wire 1 D! inst3|LPM_COUNTER_component|auto_generated|counter_comb_bita9~combout $end
$var wire 1 E! pc_base[9]~input_o $end
$var wire 1 F! inst|LPM_ADD_SUB_component|auto_generated|result[8]~17 $end
$var wire 1 G! inst|LPM_ADD_SUB_component|auto_generated|result[9]~18_combout $end
$var wire 1 H! inst2|LPM_MUX_component|auto_generated|result_node[9]~6_combout $end
$var wire 1 I! inst1|LPM_ADD_SUB_component|auto_generated|result[8]~17 $end
$var wire 1 J! inst1|LPM_ADD_SUB_component|auto_generated|result[9]~18_combout $end
$var wire 1 K! inst3|LPM_COUNTER_component|auto_generated|counter_comb_bita9~COUT $end
$var wire 1 L! inst3|LPM_COUNTER_component|auto_generated|counter_comb_bita10~combout $end
$var wire 1 M! pc_base[10]~input_o $end
$var wire 1 N! inst|LPM_ADD_SUB_component|auto_generated|result[9]~19 $end
$var wire 1 O! inst|LPM_ADD_SUB_component|auto_generated|result[10]~20_combout $end
$var wire 1 P! inst2|LPM_MUX_component|auto_generated|result_node[10]~5_combout $end
$var wire 1 Q! inst1|LPM_ADD_SUB_component|auto_generated|result[9]~19 $end
$var wire 1 R! inst1|LPM_ADD_SUB_component|auto_generated|result[10]~20_combout $end
$var wire 1 S! inst3|LPM_COUNTER_component|auto_generated|counter_comb_bita10~COUT $end
$var wire 1 T! inst3|LPM_COUNTER_component|auto_generated|counter_comb_bita11~combout $end
$var wire 1 U! pc_base[11]~input_o $end
$var wire 1 V! inst|LPM_ADD_SUB_component|auto_generated|result[10]~21 $end
$var wire 1 W! inst|LPM_ADD_SUB_component|auto_generated|result[11]~22_combout $end
$var wire 1 X! inst2|LPM_MUX_component|auto_generated|result_node[11]~4_combout $end
$var wire 1 Y! inst1|LPM_ADD_SUB_component|auto_generated|result[10]~21 $end
$var wire 1 Z! inst1|LPM_ADD_SUB_component|auto_generated|result[11]~22_combout $end
$var wire 1 [! inst3|LPM_COUNTER_component|auto_generated|counter_comb_bita11~COUT $end
$var wire 1 \! inst3|LPM_COUNTER_component|auto_generated|counter_comb_bita12~combout $end
$var wire 1 ]! pc_base[12]~input_o $end
$var wire 1 ^! inst|LPM_ADD_SUB_component|auto_generated|result[11]~23 $end
$var wire 1 _! inst|LPM_ADD_SUB_component|auto_generated|result[12]~24_combout $end
$var wire 1 `! inst2|LPM_MUX_component|auto_generated|result_node[12]~3_combout $end
$var wire 1 a! inst1|LPM_ADD_SUB_component|auto_generated|result[11]~23 $end
$var wire 1 b! inst1|LPM_ADD_SUB_component|auto_generated|result[12]~24_combout $end
$var wire 1 c! inst3|LPM_COUNTER_component|auto_generated|counter_comb_bita12~COUT $end
$var wire 1 d! inst3|LPM_COUNTER_component|auto_generated|counter_comb_bita13~combout $end
$var wire 1 e! pc_base[13]~input_o $end
$var wire 1 f! inst|LPM_ADD_SUB_component|auto_generated|result[12]~25 $end
$var wire 1 g! inst|LPM_ADD_SUB_component|auto_generated|result[13]~26_combout $end
$var wire 1 h! inst2|LPM_MUX_component|auto_generated|result_node[13]~2_combout $end
$var wire 1 i! inst1|LPM_ADD_SUB_component|auto_generated|result[12]~25 $end
$var wire 1 j! inst1|LPM_ADD_SUB_component|auto_generated|result[13]~26_combout $end
$var wire 1 k! inst3|LPM_COUNTER_component|auto_generated|counter_comb_bita13~COUT $end
$var wire 1 l! inst3|LPM_COUNTER_component|auto_generated|counter_comb_bita14~combout $end
$var wire 1 m! pc_base[14]~input_o $end
$var wire 1 n! inst|LPM_ADD_SUB_component|auto_generated|result[13]~27 $end
$var wire 1 o! inst|LPM_ADD_SUB_component|auto_generated|result[14]~28_combout $end
$var wire 1 p! inst2|LPM_MUX_component|auto_generated|result_node[14]~1_combout $end
$var wire 1 q! inst1|LPM_ADD_SUB_component|auto_generated|result[13]~27 $end
$var wire 1 r! inst1|LPM_ADD_SUB_component|auto_generated|result[14]~28_combout $end
$var wire 1 s! inst3|LPM_COUNTER_component|auto_generated|counter_comb_bita14~COUT $end
$var wire 1 t! inst3|LPM_COUNTER_component|auto_generated|counter_comb_bita15~combout $end
$var wire 1 u! pc_base[15]~input_o $end
$var wire 1 v! inst|LPM_ADD_SUB_component|auto_generated|result[14]~29 $end
$var wire 1 w! inst|LPM_ADD_SUB_component|auto_generated|result[15]~30_combout $end
$var wire 1 x! inst2|LPM_MUX_component|auto_generated|result_node[15]~0_combout $end
$var wire 1 y! inst1|LPM_ADD_SUB_component|auto_generated|result[14]~29 $end
$var wire 1 z! inst1|LPM_ADD_SUB_component|auto_generated|result[15]~30_combout $end
$var wire 1 {! inst3|LPM_COUNTER_component|auto_generated|counter_reg_bit [15] $end
$var wire 1 |! inst3|LPM_COUNTER_component|auto_generated|counter_reg_bit [14] $end
$var wire 1 }! inst3|LPM_COUNTER_component|auto_generated|counter_reg_bit [13] $end
$var wire 1 ~! inst3|LPM_COUNTER_component|auto_generated|counter_reg_bit [12] $end
$var wire 1 !" inst3|LPM_COUNTER_component|auto_generated|counter_reg_bit [11] $end
$var wire 1 "" inst3|LPM_COUNTER_component|auto_generated|counter_reg_bit [10] $end
$var wire 1 #" inst3|LPM_COUNTER_component|auto_generated|counter_reg_bit [9] $end
$var wire 1 $" inst3|LPM_COUNTER_component|auto_generated|counter_reg_bit [8] $end
$var wire 1 %" inst3|LPM_COUNTER_component|auto_generated|counter_reg_bit [7] $end
$var wire 1 &" inst3|LPM_COUNTER_component|auto_generated|counter_reg_bit [6] $end
$var wire 1 '" inst3|LPM_COUNTER_component|auto_generated|counter_reg_bit [5] $end
$var wire 1 (" inst3|LPM_COUNTER_component|auto_generated|counter_reg_bit [4] $end
$var wire 1 )" inst3|LPM_COUNTER_component|auto_generated|counter_reg_bit [3] $end
$var wire 1 *" inst3|LPM_COUNTER_component|auto_generated|counter_reg_bit [2] $end
$var wire 1 +" inst3|LPM_COUNTER_component|auto_generated|counter_reg_bit [1] $end
$var wire 1 ," inst3|LPM_COUNTER_component|auto_generated|counter_reg_bit [0] $end
$upscope $end
$upscope $end
$enddefinitions $end
#0
$dumpvars
0!
b10010 "
0#
0$
b101 %
0&
1'
07
06
05
04
03
02
01
00
0/
0.
0-
0,
0+
0*
0)
0(
08
19
x:
1;
1<
1=
0>
0?
0@
0A
0B
0C
0D
0E
0F
0G
0H
0I
0J
0K
0L
0M
0N
1O
1P
0Q
1R
0S
0T
1U
1V
0W
0X
0Y
0Z
0[
0\
1]
0^
1_
0`
0a
1b
1c
0d
1e
0f
1g
1h
0i
1j
1k
0l
0m
0n
0o
0p
0q
0r
0s
0t
1u
0v
0w
1x
1y
1z
0{
1|
1}
0~
0!!
0"!
0#!
0$!
0%!
0&!
0'!
0(!
1)!
0*!
0+!
0,!
1-!
0.!
0/!
10!
01!
02!
03!
04!
05!
06!
07!
08!
09!
0:!
1;!
0<!
0=!
1>!
0?!
0@!
1A!
0B!
0C!
0D!
0E!
0F!
0G!
0H!
0I!
0J!
1K!
0L!
0M!
1N!
0O!
0P!
1Q!
0R!
0S!
0T!
0U!
0V!
0W!
0X!
0Y!
0Z!
1[!
0\!
0]!
1^!
0_!
0`!
1a!
0b!
0c!
0d!
0e!
0f!
0g!
0h!
0i!
0j!
1k!
0l!
0m!
1n!
0o!
0p!
1q!
0r!
0s!
0t!
0u!
0v!
0w!
0x!
0y!
0z!
0,"
0+"
0*"
0)"
0("
0'"
0&"
0%"
0$"
0#"
0""
0!"
0~!
0}!
0|!
0{!
$end
#5000
1!
1N
#10000
0'
0!
0V
0N
#15000
1!
1N
#20000
1#
0!
1X
0N
1Y
#25000
1!
1N
1,"
1M
1Z
17
0O
1[
#30000
0!
0N
#35000
1!
1N
1+"
0,"
0M
1L
0c
0Z
16
07
0[
1O
1c
1d
1[
0d
#40000
0!
0N
#45000
1!
1N
1,"
1M
1Z
17
0O
0c
0[
1d
#50000
0!
0N
#55000
1!
1N
1*"
0+"
0,"
0M
0L
1K
1l
1c
0Z
15
06
07
0d
1[
1O
0l
1m
1d
0[
0m
#60000
0!
0N
#65000
1!
1N
1,"
1M
1Z
17
0O
1[
#70000
0!
0N
#75000
1!
1N
1+"
0,"
0M
1L
0c
0Z
16
07
0[
1O
1l
1c
0d
1[
0l
1m
1d
0m
#80000
0!
0N
#85000
1!
1N
1,"
1M
1Z
17
0O
0c
0[
1l
0d
1m
#90000
0!
0N
#95000
1!
1N
1)"
0*"
0+"
0,"
0M
0L
0K
1J
0u
0l
1c
0Z
14
05
06
07
0m
1d
1[
1O
1u
1v
1m
0d
0[
0v
#100000
0!
0N
#105000
1!
1N
1,"
1M
1Z
17
0O
1[
#110000
1$
0!
1W
0N
#115000
1!
1N
1("
0)"
1*"
1+"
1L
1K
0J
1I
0c
13
04
15
16
1v
0m
1d
0[
1l
0d
1m
#120000
0!
0N
#125000
1!
1N
#130000
0!
0N
#135000
1!
1N
#140000
0!
0N
#145000
1!
1N
#150000
0!
0N
#155000
1!
1N
#160000
0!
0N
#165000
1!
1N
#170000
0!
0N
#175000
1!
1N
#180000
0!
0N
#185000
1!
1N
#190000
0!
0N
#195000
1!
1N
#200000
1&
0!
1S
0N
1{
1i
1`
1T
1'!
0}
1s
0k
0j
0b
1a
0U
1(!
1t
1k
1b
#205000
1!
1N
1'"
0("
1)"
0,"
0M
1J
0I
1H
1&!
0{
1r
0u
0T
0Z
12
03
14
07
1!!
0v
0m
1O
00!
0(!
0'!
1}
0|
0t
0a
1U
1c
1v
1[
11!
10!
1(!
1'!
0}
0b
0l
1d
01!
00!
0(!
1u
1m
11!
0v
#210000
0!
0N
#215000
1!
1N
1&"
0'"
0)"
0+"
1,"
1M
0L
0J
0H
1G
1/!
0&!
0r
0`
1T
1Z
11
02
04
06
17
1*!
0!!
0m
0[
0O
19!
01!
10!
1(!
1|
1t
1j
1b
1a
0U
1[
1:!
09!
11!
0'!
1}
0k
0j
0b
0:!
0(!
1k
#220000
0!
0N
#225000
1!
1N
1("
1)"
0,"
0M
1J
1I
1{
1r
0T
0Z
13
14
07
1v
1m
1O
1'!
0}
0|
0t
0a
1U
0[
1(!
1}
1j
1b
0k
#230000
0!
0N
#235000
1!
1N
1'"
0)"
0*"
1+"
1,"
1M
1L
0K
0J
1H
1&!
0r
0i
1`
1T
1Z
12
04
05
16
17
1!!
0m
0d
1[
0O
00!
0(!
1|
1t
0s
1k
0j
0b
1a
0U
0c
0[
19!
01!
0}
0t
1s
0k
1b
1d
1:!
1t
#240000
0!
0N
#245000
1!
1N
1%"
0&"
0'"
0("
1)"
0,"
0M
1J
0I
0H
0G
1F
18!
0/!
0&!
0{
1r
0T
0Z
10
01
02
03
14
07
13!
0*!
0!!
0v
1m
1O
0A!
0:!
09!
11!
10!
1(!
0'!
1}
0|
0t
0a
1U
1c
1[
1B!
1A!
1:!
01!
0(!
1'!
0}
0b
0d
0B!
1(!
#250000
0!
0N
#255000
1!
1N
1'"
0)"
0+"
1,"
1M
0L
0J
1H
1&!
0r
0`
1T
1Z
12
04
06
17
1!!
0m
0[
0O
00!
0(!
1|
1t
1j
1b
1a
0U
1[
11!
0'!
1}
0s
1k
0j
0b
10!
1(!
0t
1s
0k
01!
1t
#260000
0!
0N
#265000
1!
1N
1("
1)"
0,"
0M
1J
1I
1{
1r
0T
0Z
13
14
07
1v
1m
1O
1'!
0}
0|
0t
0a
1U
0[
00!
0(!
1}
1j
1b
11!
0s
1k
1|
1t
0}
#270000
0!
0N
#275000
1!
1N
1&"
0'"
0("
1*"
1+"
1,"
1M
1L
1K
0I
0H
1G
1/!
0&!
0{
1i
1`
1T
1Z
11
02
03
15
16
17
1*!
0!!
0v
1d
1[
0O
19!
01!
10!
1(!
0'!
1}
1s
0k
0j
0b
1a
0U
0c
0[
0A!
0:!
09!
11!
0(!
0|
0t
1k
1b
1l
0d
1B!
1A!
1:!
1'!
0}
0u
0m
0B!
1(!
1v
#280000
0!
0N
#285000
1!
1N
1'"
0)"
0,"
0M
0J
1H
1&!
0r
1u
0T
0Z
12
04
07
1!!
1m
1O
00!
0(!
1|
1t
0a
1U
1c
0v
1[
19!
01!
0'!
1}
0b
0l
1d
0A!
0:!
10!
1(!
0m
1B!
09!
11!
1A!
1:!
0B!
#290000
0!
0N
#295000
1!
1N
1("
1)"
0+"
1,"
1M
0L
1J
1I
1{
1r
0`
1T
1Z
13
14
06
17
1v
1m
0[
0O
1'!
0}
0|
0t
1j
1b
1a
0U
1[
00!
0(!
1}
0k
0j
0b
19!
01!
1k
0A!
0:!
1B!
#300000
0!
0N
#305000
1!
1N
1$"
0%"
0&"
0'"
0)"
0,"
0M
0J
0H
0G
0F
1E
1@!
08!
0/!
0&!
0r
0T
0Z
1/
00
01
02
04
07
1<!
03!
0*!
0!!
0m
1O
1I!
0B!
1A!
1:!
09!
11!
10!
1(!
1|
1t
0a
1U
0[
1J!
0I!
1B!
0:!
01!
0}
1j
1b
0J!
0k
#310000
0!
0N
#315000
1!
1N
1'"
0("
1)"
0*"
1+"
1,"
1M
1L
0K
1J
0I
1H
1&!
0{
1r
0i
1`
1T
1Z
12
03
14
05
16
17
1!!
0v
1m
0d
1[
0O
00!
0(!
0'!
1}
0|
0t
0s
1k
0j
0b
1a
0U
0c
0[
11!
10!
1(!
1'!
0}
1|
1t
1s
0k
1b
1d
01!
00!
0(!
0'!
1}
0|
0t
11!
10!
1(!
1'!
0}
01!
00!
0(!
11!
#320000
0!
0N
#325000
1!
1N
1&"
0'"
0)"
0,"
0M
0J
0H
1G
1/!
0&!
0r
0T
0Z
11
02
04
07
1*!
0!!
0m
1O
19!
01!
10!
1(!
1|
1t
0a
1U
1c
1[
1:!
09!
11!
0'!
1}
0b
0d
0:!
0(!
#330000
0!
0N
#335000
1!
1N
1("
1)"
0+"
1,"
1M
0L
1J
1I
1{
1r
0`
1T
1Z
13
14
06
17
1v
1m
0[
0O
1'!
0}
0|
0t
1j
1b
1a
0U
1[
1(!
1}
0s
1k
0j
0b
1|
1t
1s
0k
0}
0|
0t
1}
#340000
0!
0N
#345000
1!
1N
1'"
0)"
0,"
0M
0J
1H
1&!
0r
0T
0Z
12
04
07
1!!
0m
1O
00!
0(!
1|
1t
0a
1U
0[
19!
01!
0}
1j
1b
1:!
0s
1k
0t
#350000
0!
0N
#355000
1!
1N
1%"
0&"
0'"
0("
1*"
1+"
1,"
1M
1L
1K
0I
0H
0G
1F
18!
0/!
0&!
0{
1i
1`
1T
1Z
10
01
02
03
15
16
17
13!
0*!
0!!
0v
1d
1[
0O
0A!
0:!
09!
11!
10!
1(!
0'!
1}
1s
0k
0j
0b
1a
0U
0c
0[
1I!
0B!
1A!
1:!
01!
0(!
1t
1k
1b
1l
0d
1J!
0I!
1B!
1m
0J!
#360000
0!
0N
#365000
1!
1N
1("
1)"
0,"
0M
1J
1I
1{
1r
0u
0T
0Z
13
14
07
1v
0m
1O
1'!
0}
0|
0t
1~
0a
1U
1c
0v
1[
1(!
1}
0b
0l
1!!
1d
1u
1m
0~
1v
0!!
#370000
0!
0N
#375000
1!
1N
1'"
0)"
0+"
1,"
1M
0L
0J
1H
1&!
0r
0`
1T
1Z
12
04
06
17
1!!
0m
0[
0O
00!
0(!
1|
1t
1j
1b
1a
0U
1[
11!
0}
0k
0j
0b
1k
#380000
0!
0N
#385000
1!
1N
1&"
0'"
0("
1)"
0,"
0M
1J
0I
0H
1G
1/!
0&!
0{
1r
0T
0Z
11
02
03
14
07
1*!
0!!
0v
1m
1O
19!
01!
10!
1(!
0'!
1}
0|
0t
0a
1U
0[
0A!
0:!
09!
11!
0(!
1'!
0}
1j
1b
1I!
0B!
1A!
1:!
1(!
0k
1J!
0I!
1B!
0J!
#390000
0!
0N
#395000
1!
1N
1'"
0)"
0*"
1+"
1,"
1M
1L
0K
0J
1H
1&!
0r
0i
1`
1T
1Z
12
04
05
16
17
1!!
0m
0d
1[
0O
00!
0(!
1|
1t
0s
1k
0j
0b
1a
0U
0c
0[
19!
01!
0'!
1}
0t
1s
0k
1b
1d
0A!
0:!
10!
1(!
1t
1I!
0B!
09!
11!
1J!
1A!
1:!
0I!
1B!
0J!
#400000
0!
0N
#405000
1!
1N
1("
1)"
0,"
0M
1J
1I
1{
1r
0T
0Z
13
14
07
1v
1m
1O
1'!
0}
0|
0t
0a
1U
1c
1[
00!
0(!
1}
0b
0d
19!
01!
0A!
0:!
1I!
0B!
1J!
#410000
0!
0N
#415000
1!
1N
1#"
0$"
0%"
0&"
0'"
0)"
0+"
1,"
1M
0L
0J
0H
0G
0F
0E
1D
1H!
0@!
08!
0/!
0&!
0r
0`
1T
1Z
1.
0/
00
01
02
04
06
17
1D!
0<!
03!
0*!
0!!
0m
0[
0O
0Q!
0J!
0I!
1B!
1A!
1:!
09!
11!
10!
1(!
1|
1t
1j
1b
1a
0U
1[
1R!
1Q!
1J!
0B!
0:!
01!
0}
0s
1k
0j
0b
0R!
0t
1s
0k
1t
#420000
0!
0N
#425000
1!
1N
1'"
0("
1)"
0,"
0M
1J
0I
1H
1&!
0{
1r
0T
0Z
12
03
14
07
1!!
0v
1m
1O
00!
0(!
0'!
1}
0|
0t
0a
1U
0[
11!
10!
1(!
1'!
0}
1j
1b
01!
00!
0(!
0s
1k
11!
1|
1t
0'!
1}
10!
1(!
01!
#430000
0!
0N
#435000
1!
1N
1("
1*"
1+"
1,"
1M
1L
1K
1I
1{
1i
1`
1T
1Z
13
15
16
17
1v
1d
1[
0O
1'!
0}
1s
0k
0j
0b
1a
0U
0c
0[
00!
0(!
0|
0t
1k
1b
1l
0d
11!
1}
0u
0m
1~
0v
0)!
0!!
1*!
#440000
0!
0N
#445000
1!
1N
1&"
0'"
0)"
0,"
0M
0J
0H
1G
1/!
12!
0&!
1)!
0r
1u
0T
0Z
11
02
04
07
0*!
1!!
1m
1O
19!
01!
10!
1(!
02!
1|
1t
0~
0a
1U
1c
13!
1*!
1v
1[
1:!
09!
11!
0}
0b
0l
03!
0!!
1d
0:!
0m
#450000
0!
0N
#455000
1!
1N
1'"
0("
1)"
0+"
1,"
1M
0L
1J
0I
1H
1&!
0{
1r
0`
1T
1Z
12
03
14
06
17
1!!
0v
1m
0[
0O
00!
0(!
0'!
1}
0|
0t
1j
1b
1a
0U
1[
19!
01!
10!
1(!
1'!
0}
0k
0j
0b
1:!
09!
11!
00!
0(!
1k
0:!
19!
01!
1:!
#460000
0!
0N
#465000
1!
1N
1%"
0&"
0'"
0)"
0,"
0M
0J
0H
0G
1F
18!
0/!
0&!
0r
0T
0Z
10
01
02
04
07
13!
0*!
0!!
0m
1O
0A!
0:!
09!
11!
10!
1(!
1|
1t
0a
1U
0[
1B!
1A!
1:!
01!
0'!
1}
1j
1b
0B!
0(!
0k
#470000
0!
0N
#475000
1!
1N
1("
1)"
0*"
1+"
1,"
1M
1L
0K
1J
1I
1{
1r
0i
1`
1T
1Z
13
14
05
16
17
1v
1m
0d
1[
0O
1'!
0}
0|
0t
0s
1k
0j
0b
1a
0U
0c
0[
1(!
1}
1|
1t
1s
0k
1b
1d
0}
0|
0t
1}
#480000
0!
0N
#485000
1!
1N
1'"
0)"
0,"
0M
0J
1H
1&!
0r
0T
0Z
12
04
07
1!!
0m
1O
00!
0(!
1|
1t
0a
1U
1c
1[
11!
0}
0b
0d
#490000
0!
0N
#495000
1!
1N
1&"
0'"
0("
1)"
0+"
1,"
1M
0L
1J
0I
0H
1G
1/!
0&!
0{
1r
0`
1T
1Z
11
02
03
14
06
17
1*!
0!!
0v
1m
0[
0O
19!
01!
10!
1(!
0'!
1}
0|
0t
1j
1b
1a
0U
1[
0A!
0:!
09!
11!
0(!
1'!
0}
0s
1k
0j
0b
1B!
1A!
1:!
1(!
1|
1t
1s
0k
0B!
0'!
1}
0|
0t
0(!
1'!
0}
1(!
#500000
0!
0N
#505000
1!
1N
1'"
0)"
0,"
0M
0J
1H
1&!
0r
0T
0Z
12
04
07
1!!
0m
1O
00!
0(!
1|
1t
0a
1U
0[
19!
01!
0'!
1}
1j
1b
0A!
0:!
10!
1(!
0s
1k
1B!
09!
11!
0t
1A!
1:!
0B!
#510000
0!
0N
#515000
1!
1N
1("
1*"
1+"
1,"
1M
1L
1K
1I
1{
1i
1`
1T
1Z
13
15
16
17
1v
1d
1[
0O
1'!
0}
1s
0k
0j
0b
1a
0U
0c
0[
00!
0(!
1t
1k
1b
1l
0d
19!
01!
1m
0A!
0:!
1B!
#520000
0!
0N
#525000
1!
1N
1$"
0%"
0&"
0'"
0("
1)"
0,"
0M
1J
0I
0H
0G
0F
1E
1@!
08!
0/!
0&!
0{
1r
0u
0T
0Z
1/
00
01
02
03
14
07
1<!
03!
0*!
0!!
0v
0m
1O
1I!
0B!
1A!
1:!
09!
11!
10!
1(!
0'!
1}
0|
0t
0a
1U
1c
1v
1[
0Q!
0J!
0I!
1B!
0:!
01!
0(!
1'!
0}
0b
0l
1d
1R!
1Q!
1J!
1(!
1u
1m
0R!
0v
#530000
0!
0N
#535000
1!
1N
1'"
0)"
0+"
1,"
1M
0L
0J
1H
1&!
0r
0`
1T
1Z
12
04
06
17
1!!
0m
0[
0O
00!
0(!
1|
1t
1j
1b
1a
0U
1[
11!
0'!
1}
0k
0j
0b
10!
1(!
1k
01!
#540000
0!
0N
#545000
1!
1N
1("
1)"
0,"
0M
1J
1I
1{
1r
0T
0Z
13
14
07
1v
1m
1O
1'!
0}
0|
0t
0a
1U
0[
00!
0(!
1}
1j
1b
11!
0k
#550000
0!
0N
