杭电2021数字系统与处理器1/lab2/simulation/qsim/lab2.msim.vcd
$comment
	File created using the following command:
		vcd file lab2.msim.vcd -direction
$end
$date
	Tue May 18 19:50:03 2021
$end
$version
	ModelSim Version 10.5b
$end
$timescale
	1ps
$end

$scope module fadder_dec_vlg_vec_tst $end
$var reg 1 ! a $end
$var reg 1 " b $end
$var reg 1 # ci $end
$var wire 1 $ co $end
$var wire 1 % so $end

$scope module i1 $end
$var wire 1 & gnd $end
$var wire 1 ' vcc $end
$var wire 1 ( unknown $end
$var tri1 1 ) devclrn $end
$var tri1 1 * devpor $end
$var tri1 1 + devoe $end
$var wire 1 , so~output_o $end
$var wire 1 - co~output_o $end
$var wire 1 . a~input_o $end
$var wire 1 / ci~input_o $end
$var wire 1 0 b~input_o $end
$var wire 1 1 WideOr1~0_combout $end
$var wire 1 2 WideOr0~0_combout $end
$upscope $end
$upscope $end
$enddefinitions $end
#0
$dumpvars
0!
0"
0#
0$
0%
0&
1'
x(
1)
1*
1+
0,
0-
0.
0/
00
01
02
$end
#10000
1!
1.
11
1,
1%
#20000
1"
0!
10
0.
#30000
1!
1.
12
01
0,
1-
1$
0%
#40000
1#
0"
0!
1/
00
0.
02
11
1,
0-
0$
1%
#50000
1!
1.
12
01
0,
1-
1$
0%
#60000
1"
0!
10
0.
#70000
1!
1.
11
1,
1%
#80000
0#
0"
0!
0/
00
0.
02
01
0,
0-
0$
0%
#90000
1!
1.
11
1,
1%
#100000
1"
0!
10
0.
#110000
1!
1.
12
01
0,
1-
1$
0%
#120000
1#
0"
0!
1/
00
0.
02
11
1,
0-
0$
1%
#130000
1!
1.
12
01
0,
1-
1$
0%
#140000
1"
0!
10
0.
#150000
1!
1.
11
1,
1%
#160000
0#
0"
0!
0/
00
0.
02
01
0,
0-
0$
0%
#170000
1!
1.
11
1,
1%
#180000
1"
0!
10
0.
#190000
1!
1.
12
01
0,
1-
1$
0%
#200000
1#
0"
0!
1/
00
0.
02
11
1,
0-
0$
1%
#210000
1!
1.
12
01
0,
1-
1$
0%
#220000
1"
0!
10
0.
#230000
1!
1.
11
1,
1%
#240000
0#
0"
0!
0/
00
0.
02
01
0,
0-
0$
0%
#250000
1!
1.
11
1,
1%
#260000
1"
0!
10
0.
#270000
1!
1.
12
01
0,
1-
1$
0%
#280000
1#
0"
0!
1/
00
0.
02
11
1,
0-
0$
1%
#290000
1!
1.
12
01
0,
1-
1$
0%
#300000
1"
0!
10
0.
#310000
1!
1.
11
1,
1%
#320000
0#
0"
0!
0/
00
0.
02
01
0,
0-
0$
0%
#330000
1!
1.
11
1,
1%
#340000
1"
0!
10
0.
#350000
1!
1.
12
01
0,
1-
1$
0%
#360000
1#
0"
0!
1/
00
0.
02
11
1,
0-
0$
1%
#370000
1!
1.
12
01
0,
1-
1$
0%
#380000
1"
0!
10
0.
#390000
1!
1.
11
1,
1%
#400000
0#
0"
0!
0/
00
0.
02
01
0,
0-
0$
0%
#410000
1!
1.
11
1,
1%
#420000
1"
0!
10
0.
#430000
1!
1.
12
01
0,
1-
1$
0%
#440000
1#
0"
0!
1/
00
0.
02
11
1,
0-
0$
1%
#450000
1!
1.
12
01
0,
1-
1$
0%
#460000
1"
0!
10
0.
#470000
1!
1.
11
1,
1%
#480000
0#
0"
0!
0/
00
0.
02
01
0,
0-
0$
0%
#490000
1!
1.
11
1,
1%
#500000
1"
0!
10
0.
#510000
1!
1.
12
01
0,
1-
1$
0%
#520000
1#
0"
0!
1/
00
0.
02
11
1,
0-
0$
1%
#530000
1!
1.
12
01
0,
1-
1$
0%
#540000
1"
0!
10
0.
#550000
1!
1.
11
1,
1%
#560000
0#
0"
0!
0/
00
0.
02
01
0,
0-
0$
0%
#570000
1!
1.
11
1,
1%
#580000
1"
0!
10
0.
#590000
1!
1.
12
01
0,
1-
1$
0%
#600000
1#
0"
0!
1/
00
0.
02
11
1,
0-
0$
1%
#610000
1!
1.
12
01
0,
1-
1$
0%
#620000
1"
0!
10
0.
#630000
1!
1.
11
1,
1%
#640000
0#
0"
0!
0/
00
0.
02
01
0,
0-
0$
0%
#650000
1!
1.
11
1,
1%
#660000
1"
0!
10
0.
#670000
1!
1.
12
01
0,
1-
1$
0%
#680000
1#
0"
0!
1/
00
0.
02
11
1,
0-
0$
1%
#690000
1!
1.
12
01
0,
1-
1$
0%
#700000
1"
0!
10
0.
#710000
1!
1.
11
1,
1%
#720000
0#
0"
0!
0/
00
0.
02
01
0,
0-
0$
0%
#730000
1!
1.
11
1,
1%
#740000
1"
0!
10
0.
#750000
1!
1.
12
01
0,
1-
1$
0%
#760000
1#
0"
0!
1/
00
0.
02
11
1,
0-
0$
1%
#770000
1!
1.
12
01
0,
1-
1$
0%
#780000
1"
0!
10
0.
#790000
1!
1.
11
1,
1%
#800000
0#
0"
0!
0/
00
0.
02
01
0,
0-
0$
0%
#810000
1!
1.
11
1,
1%
#820000
1"
0!
10
0.
#830000
1!
1.
12
01
0,
1-
1$
0%
#840000
1#
0"
0!
1/
00
0.
02
11
1,
0-
0$
1%
#850000
1!
1.
12
01
0,
1-
1$
0%
#860000
1"
0!
10
0.
#870000
1!
1.
11
1,
1%
#880000
0#
0"
0!
0/
00
0.
02
01
0,
0-
0$
0%
#890000
1!
1.
11
1,
1%
#900000
1"
0!
10
0.
#910000
1!
1.
12
01
0,
1-
1$
0%
#920000
1#
0"
0!
1/
00
0.
02
11
1,
0-
0$
1%
#930000
1!
1.
12
01
0,
1-
1$
0%
#940000
1"
0!
10
0.
#950000
1!
1.
11
1,
1%
#960000
0#
0"
0!
0/
00
0.
02
01
0,
0-
0$
0%
#970000
1!
1.
11
1,
1%
#980000
1"
0!
10
0.
#990000
1!
1.
12
01
0,
1-
1$
0%
