hdu2020ShuDian/lab1/simulation/qsim/lab1.msim.vcd
$comment
	File created using the following command:
		vcd file lab1.msim.vcd -direction
$end
$date
	Tue May 18 18:58:03 2021
$end
$version
	ModelSim Version 10.5b
$end
$timescale
	1ps
$end

$scope module mux41x_vlg_vec_tst $end
$var reg 1 ! D0 $end
$var reg 1 " D1 $end
$var reg 1 # D2 $end
$var reg 1 $ D3 $end
$var reg 1 % S0 $end
$var reg 1 & S1 $end
$var wire 1 ' Q $end

$scope module i1 $end
$var wire 1 ( gnd $end
$var wire 1 ) vcc $end
$var wire 1 * unknown $end
$var tri1 1 + devclrn $end
$var tri1 1 , devpor $end
$var tri1 1 - devoe $end
$var wire 1 . Q~output_o $end
$var wire 1 / S1~input_o $end
$var wire 1 0 D2~input_o $end
$var wire 1 1 D3~input_o $end
$var wire 1 2 D0~input_o $end
$var wire 1 3 D1~input_o $end
$var wire 1 4 S0~input_o $end
$var wire 1 5 inst4~0_combout $end
$var wire 1 6 inst4~1_combout $end
$upscope $end
$upscope $end
$enddefinitions $end
#0
$dumpvars
0!
0"
0#
0$
0%
0&
0'
0(
1)
x*
1+
1,
1-
0.
0/
00
01
02
03
04
15
16
$end
#2000
1$
11
#4000
1#
10
#6000
1"
13
#8000
1!
12
05
06
1.
1'
#10000
0$
0#
0"
0!
01
00
03
02
15
16
0.
0'
#12000
1$
11
#14000
1#
10
#16000
1"
13
#18000
1!
12
05
06
1.
1'
#20000
0$
0#
0"
0!
01
00
03
02
15
16
0.
0'
#22000
1$
11
#24000
1#
10
#26000
1"
13
#28000
1!
12
05
06
1.
1'
#30000
1%
0$
0#
0"
0!
14
01
00
03
02
15
16
0.
0'
#32000
1$
11
#34000
1#
10
#36000
1"
13
05
06
1.
1'
#38000
1!
12
#40000
0$
0#
0"
0!
01
00
03
02
15
16
0.
0'
#42000
1$
11
#44000
1#
10
#46000
1"
13
05
06
1.
1'
#48000
1!
12
#50000
0$
0#
0"
0!
01
00
03
02
15
16
0.
0'
#52000
1$
11
#54000
1#
10
#56000
1"
13
05
06
1.
1'
#58000
1!
12
#60000
1&
0%
0$
0#
0"
0!
1/
04
01
00
03
02
16
0.
0'
#62000
1$
11
#64000
1#
10
06
1.
1'
#66000
1"
13
#68000
1!
12
#70000
0$
0#
0"
0!
01
00
03
02
16
0.
0'
#72000
1$
11
#74000
1#
10
06
1.
1'
#76000
1"
13
#78000
1!
12
#80000
0$
0#
0"
0!
01
00
03
02
16
0.
0'
#82000
1$
11
#84000
1#
10
06
1.
1'
#86000
1"
13
#88000
1!
12
#90000
1%
0$
0#
0"
0!
14
01
00
03
02
15
16
0.
0'
#92000
1$
11
06
1.
1'
#94000
1#
10
#96000
1"
13
#98000
1!
12
#100000
0$
0#
0"
0!
01
00
03
02
16
0.
0'
#102000
1$
11
06
1.
1'
#104000
1#
10
#106000
1"
13
#108000
1!
12
#110000
0$
0#
0"
0!
01
00
03
02
16
0.
0'
#112000
1$
11
06
1.
1'
#114000
1#
10
#116000
1"
13
#118000
1!
12
#120000
0&
0%
0$
0#
0"
0!
0/
04
01
00
03
02
16
0.
0'
#122000
1$
11
#124000
1#
10
#126000
1"
13
#128000
1!
12
05
06
1.
1'
#130000
0$
0#
0"
0!
01
00
03
02
15
16
0.
0'
#132000
1$
11
#134000
1#
10
#136000
1"
13
#138000
1!
12
05
06
1.
1'
#140000
0$
0#
0"
0!
01
00
03
02
15
16
0.
0'
#142000
1$
11
#144000
1#
10
#146000
1"
13
#148000
1!
12
05
06
1.
1'
#150000
1%
0$
0#
0"
0!
14
01
00
03
02
15
16
0.
0'
#152000
1$
11
#154000
1#
10
#156000
1"
13
05
06
1.
1'
#158000
1!
12
#160000
0$
0#
0"
0!
01
00
03
02
15
16
0.
0'
#162000
1$
11
#164000
1#
10
#166000
1"
13
05
06
1.
1'
#168000
1!
12
#170000
0$
0#
0"
0!
01
00
03
02
15
16
0.
0'
#172000
1$
11
#174000
1#
10
#176000
1"
13
05
06
1.
1'
#178000
1!
12
#180000
1&
0%
0$
0#
0"
0!
1/
04
01
00
03
02
16
0.
0'
#182000
1$
11
#184000
1#
10
06
1.
1'
#186000
1"
13
#188000
1!
12
#190000
0$
0#
0"
0!
01
00
03
02
16
0.
0'
#192000
1$
11
#194000
1#
10
06
1.
1'
#196000
1"
13
#198000
1!
12
#200000
0$
0#
0"
0!
01
00
03
02
16
0.
0'
#202000
1$
11
#204000
1#
10
06
1.
1'
#206000
1"
13
#208000
1!
12
#210000
1%
0$
0#
0"
0!
14
01
00
03
02
15
16
0.
0'
#212000
1$
11
06
1.
1'
#214000
1#
10
#216000
1"
13
#218000
1!
12
#220000
0$
0#
0"
0!
01
00
03
02
16
0.
0'
#222000
1$
11
06
1.
1'
#224000
1#
10
#226000
1"
13
#228000
1!
12
#230000
0$
0#
0"
0!
01
00
03
02
16
0.
0'
#232000
1$
11
06
1.
1'
#234000
1#
10
#236000
1"
13
#238000
1!
12
#240000
0&
0%
0$
0#
0"
0!
0/
04
01
00
03
02
16
0.
0'
#242000
1$
11
#244000
1#
10
#246000
1"
13
#248000
1!
12
05
06
1.
1'
#250000
0$
0#
0"
0!
01
00
03
02
15
16
0.
0'
#252000
1$
11
#254000
1#
10
#256000
1"
13
#258000
1!
12
05
06
1.
1'
#260000
0$
0#
0"
0!
01
00
03
02
15
16
0.
0'
#262000
1$
11
#264000
1#
10
#266000
1"
13
#268000
1!
12
05
06
1.
1'
#270000
1%
0$
0#
0"
0!
14
01
00
03
02
15
16
0.
0'
#272000
1$
11
#274000
1#
10
#276000
1"
13
05
06
1.
1'
#278000
1!
12
#280000
0$
0#
0"
0!
01
00
03
02
15
16
0.
0'
#282000
1$
11
#284000
1#
10
#286000
1"
13
05
06
1.
1'
#288000
1!
12
#290000
0$
0#
0"
0!
01
00
03
02
15
16
0.
0'
#292000
1$
11
#294000
1#
10
#296000
1"
13
05
06
1.
1'
#298000
1!
12
#300000
1&
0%
0$
0#
0"
0!
1/
04
01
00
03
02
16
0.
0'
#302000
1$
11
#304000
1#
10
06
1.
1'
#306000
1"
13
#308000
1!
12
#310000
0$
0#
0"
0!
01
00
03
02
16
0.
0'
#312000
1$
11
#314000
1#
10
06
1.
1'
#316000
1"
13
#318000
1!
12
#320000
0$
0#
0"
0!
01
00
03
02
16
0.
0'
#322000
1$
11
#324000
1#
10
06
1.
1'
#326000
1"
13
#328000
1!
12
#330000
1%
0$
0#
0"
0!
14
01
00
03
02
15
16
0.
0'
#332000
1$
11
06
1.
1'
#334000
1#
10
#336000
1"
13
#338000
1!
12
#340000
0$
0#
0"
0!
01
00
03
02
16
0.
0'
#342000
1$
11
06
1.
1'
#344000
1#
10
#346000
1"
13
#348000
1!
12
#350000
0$
0#
0"
0!
01
00
03
02
16
0.
0'
#352000
1$
11
06
1.
1'
#354000
1#
10
#356000
1"
13
#358000
1!
12
#360000
0&
0%
0$
0#
0"
0!
0/
04
01
00
03
02
16
0.
0'
#362000
1$
11
#364000
1#
10
#366000
1"
13
#368000
1!
12
05
06
1.
1'
#370000
0$
0#
0"
0!
01
00
03
02
15
16
0.
0'
#372000
1$
11
#374000
1#
10
#376000
1"
13
#378000
1!
12
05
06
1.
1'
#380000
0$
0#
0"
0!
01
00
03
02
15
16
0.
0'
#382000
1$
11
#384000
1#
10
#386000
1"
13
#388000
1!
12
05
06
1.
1'
#390000
1%
0$
0#
0"
0!
14
01
00
03
02
15
16
0.
0'
#392000
1$
11
#394000
1#
10
#396000
1"
13
05
06
1.
1'
#398000
1!
12
#400000
0$
0#
0"
0!
01
00
03
02
15
16
0.
0'
#402000
1$
11
#404000
1#
10
#406000
1"
13
05
06
1.
1'
#408000
1!
12
#410000
0$
0#
0"
0!
01
00
03
02
15
16
0.
0'
#412000
1$
11
#414000
1#
10
#416000
1"
13
05
06
1.
1'
#418000
1!
12
#420000
1&
0%
0$
0#
0"
0!
1/
04
01
00
03
02
16
0.
0'
#422000
1$
11
#424000
1#
10
06
1.
1'
#426000
1"
13
#428000
1!
12
#430000
0$
0#
0"
0!
01
00
03
02
16
0.
0'
#432000
1$
11
#434000
1#
10
06
1.
1'
#436000
1"
13
#438000
1!
12
#440000
0$
0#
0"
0!
01
00
03
02
16
0.
0'
#442000
1$
11
#444000
1#
10
06
1.
1'
#446000
1"
13
#448000
1!
12
#450000
1%
0$
0#
0"
0!
14
01
00
03
02
15
16
0.
0'
#452000
1$
11
06
1.
1'
#454000
1#
10
#456000
1"
13
#458000
1!
12
#460000
0$
0#
0"
0!
01
00
03
02
16
0.
0'
#462000
1$
11
06
1.
1'
#464000
1#
10
#466000
1"
13
#468000
1!
12
#470000
0$
0#
0"
0!
01
00
03
02
16
0.
0'
#472000
1$
11
06
1.
1'
#474000
1#
10
#476000
1"
13
#478000
1!
12
#480000
0&
0%
0$
0#
0"
0!
0/
04
01
00
03
02
16
0.
0'
#482000
1$
11
#484000
1#
10
#486000
1"
13
#488000
1!
12
05
06
1.
1'
#490000
0$
0#
0"
0!
01
00
03
02
15
16
0.
0'
#492000
1$
11
#494000
1#
10
#496000
1"
13
#498000
1!
12
05
06
1.
1'
#500000
0$
0#
0"
0!
01
00
03
02
15
16
0.
0'
#502000
1$
11
#504000
1#
10
#506000
1"
13
#508000
1!
12
05
06
1.
1'
#510000
1%
0$
0#
0"
0!
14
01
00
03
02
15
16
0.
0'
#512000
1$
11
#514000
1#
10
#516000
1"
13
05
06
1.
1'
#518000
1!
12
#520000
0$
0#
0"
0!
01
00
03
02
15
16
0.
0'
#522000
1$
11
#524000
1#
10
#526000
1"
13
05
06
1.
1'
#528000
1!
12
#530000
0$
0#
0"
0!
01
00
03
02
15
16
0.
0'
#532000
1$
11
#534000
1#
10
#536000
1"
13
05
06
1.
1'
#538000
1!
12
#540000
1&
0%
0$
0#
0"
0!
1/
04
01
00
03
02
16
0.
0'
#542000
1$
11
#544000
1#
10
06
1.
1'
#546000
1"
13
#548000
1!
12
#550000
0$
0#
0"
0!
01
00
03
02
16
0.
0'
#552000
1$
11
#554000
1#
10
06
1.
1'
#556000
1"
13
#558000
1!
12
#560000
0$
0#
0"
0!
01
00
03
02
16
0.
0'
#562000
1$
11
#564000
1#
10
06
1.
1'
#566000
1"
13
#568000
1!
12
#570000
1%
0$
0#
0"
0!
14
01
00
03
02
15
16
0.
0'
#572000
1$
11
06
1.
1'
#574000
1#
10
#576000
1"
13
#578000
1!
12
#580000
0$
0#
0"
0!
01
00
03
02
16
0.
0'
#582000
1$
11
06
1.
1'
#584000
1#
10
#586000
1"
13
#588000
1!
12
#590000
0$
0#
0"
0!
01
00
03
02
16
0.
0'
#592000
1$
11
06
1.
1'
#594000
1#
10
#596000
1"
13
#598000
1!
12
#600000
0&
0%
0$
0#
0"
0!
0/
04
01
00
03
02
16
0.
0'
#602000
1$
11
#604000
1#
10
#606000
1"
13
#608000
1!
12
05
06
1.
1'
#610000
0$
0#
0"
0!
01
00
03
02
15
16
0.
0'
#612000
1$
11
#614000
1#
10
#616000
1"
13
#618000
1!
12
05
06
1.
1'
#620000
0$
0#
0"
0!
01
00
03
02
15
16
0.
0'
#622000
1$
11
#624000
1#
10
#626000
1"
13
#628000
1!
12
05
06
1.
1'
#630000
1%
0$
0#
0"
0!
14
01
00
03
02
15
16
0.
0'
#632000
1$
11
#634000
1#
10
#636000
1"
13
05
06
1.
1'
#638000
1!
12
#640000
0$
0#
0"
0!
01
00
03
02
15
16
0.
0'
#642000
1$
11
#644000
1#
10
#646000
1"
13
05
06
1.
1'
#648000
1!
12
#650000
0$
0#
0"
0!
01
00
03
02
15
16
0.
0'
#652000
1$
11
#654000
1#
10
#656000
1"
13
05
06
1.
1'
#658000
1!
12
#660000
1&
0%
0$
0#
0"
0!
1/
04
01
00
03
02
16
0.
0'
#662000
1$
11
#664000
1#
10
06
1.
1'
#666000
1"
13
#668000
1!
12
#670000
0$
0#
0"
0!
01
00
03
02
16
0.
0'
#672000
1$
11
#674000
1#
10
06
1.
1'
#676000
1"
13
#678000
1!
12
#680000
0$
0#
0"
0!
01
00
03
02
16
0.
0'
#682000
1$
11
#684000
1#
10
06
1.
1'
#686000
1"
13
#688000
1!
12
#690000
1%
0$
0#
0"
0!
14
01
00
03
02
15
16
0.
0'
#692000
1$
11
06
1.
1'
#694000
1#
10
#696000
1"
13
#698000
1!
12
#700000
0$
0#
0"
0!
01
00
03
02
16
0.
0'
#702000
1$
11
06
1.
1'
#704000
1#
10
#706000
1"
13
#708000
1!
12
#710000
0$
0#
0"
0!
01
00
03
02
16
0.
0'
#712000
1$
11
06
1.
1'
#714000
1#
10
#716000
1"
13
#718000
1!
12
#720000
0&
0%
0$
0#
0"
0!
0/
04
01
00
03
02
16
0.
0'
#722000
1$
11
#724000
1#
10
#726000
1"
13
#728000
1!
12
05
06
1.
1'
#730000
0$
0#
0"
0!
01
00
03
02
15
16
0.
0'
#732000
1$
11
#734000
1#
10
#736000
1"
13
#738000
1!
12
05
06
1.
1'
#740000
0$
0#
0"
0!
01
00
03
02
15
16
0.
0'
#742000
1$
11
#744000
1#
10
#746000
1"
13
#748000
1!
12
05
06
1.
1'
#750000
1%
0$
0#
0"
0!
14
01
00
03
02
15
16
0.
0'
#752000
1$
11
#754000
1#
10
#756000
1"
13
05
06
1.
1'
#758000
1!
12
#760000
0$
0#
0"
0!
01
00
03
02
15
16
0.
0'
#762000
1$
11
#764000
1#
10
#766000
1"
13
05
06
1.
1'
#768000
1!
12
#770000
0$
0#
0"
0!
01
00
03
02
15
16
0.
0'
#772000
1$
11
#774000
1#
10
#776000
1"
13
05
06
1.
1'
#778000
1!
12
#780000
1&
0%
0$
0#
0"
0!
1/
04
01
00
03
02
16
0.
0'
#782000
1$
11
#784000
1#
10
06
1.
1'
#786000
1"
13
#788000
1!
12
#790000
0$
0#
0"
0!
01
00
03
02
16
0.
0'
#792000
1$
11
#794000
1#
10
06
1.
1'
#796000
1"
13
#798000
1!
12
#800000
0$
0#
0"
0!
01
00
03
02
16
0.
0'
#802000
1$
11
#804000
1#
10
06
1.
1'
#806000
1"
13
#808000
1!
12
#810000
1%
0$
0#
0"
0!
14
01
00
03
02
15
16
0.
0'
#812000
1$
11
06
1.
1'
#814000
1#
10
#816000
1"
13
#818000
1!
12
#820000
0$
0#
0"
0!
01
00
03
02
16
0.
0'
#822000
1$
11
06
1.
1'
#824000
1#
10
#826000
1"
13
#828000
1!
12
#830000
0$
0#
0"
0!
01
00
03
02
16
0.
0'
#832000
1$
11
06
1.
1'
#834000
1#
10
#836000
1"
13
#838000
1!
12
#840000
0&
0%
0$
0#
0"
0!
0/
04
01
00
03
02
16
0.
0'
#842000
1$
11
#844000
1#
10
#846000
1"
13
#848000
1!
12
05
06
1.
1'
#850000
0$
0#
0"
0!
01
00
03
02
15
16
0.
0'
#852000
1$
11
#854000
1#
10
#856000
1"
13
#858000
1!
12
05
06
1.
1'
#860000
0$
0#
0"
0!
01
00
03
02
15
16
0.
0'
#862000
1$
11
#864000
1#
10
#866000
1"
13
#868000
1!
12
05
06
1.
1'
#870000
1%
0$
0#
0"
0!
14
01
00
03
02
15
16
0.
0'
#872000
1$
11
#874000
1#
10
#876000
1"
13
05
06
1.
1'
#878000
1!
12
#880000
0$
0#
0"
0!
01
00
03
02
15
16
0.
0'
#882000
1$
11
#884000
1#
10
#886000
1"
13
05
06
1.
1'
#888000
1!
12
#890000
0$
0#
0"
0!
01
00
03
02
15
16
0.
0'
#892000
1$
11
#894000
1#
10
#896000
1"
13
05
06
1.
1'
#898000
1!
12
#900000
1&
0%
0$
0#
0"
0!
1/
04
01
00
03
02
16
0.
0'
#902000
1$
11
#904000
1#
10
06
1.
1'
#906000
1"
13
#908000
1!
12
#910000
0$
0#
0"
0!
01
00
03
02
16
0.
0'
#912000
1$
11
#914000
1#
10
06
1.
1'
#916000
1"
13
#918000
1!
12
#920000
0$
0#
0"
0!
01
00
03
02
16
0.
0'
#922000
1$
11
#924000
1#
10
06
1.
1'
#926000
1"
13
#928000
1!
12
#930000
1%
0$
0#
0"
0!
14
01
00
03
02
15
16
0.
0'
#932000
1$
11
06
1.
1'
#934000
1#
10
#936000
1"
13
#938000
1!
12
#940000
0$
0#
0"
0!
01
00
03
02
16
0.
0'
#942000
1$
11
06
1.
1'
#944000
1#
10
#946000
1"
13
#948000
1!
12
#950000
0$
0#
0"
0!
01
00
03
02
16
0.
0'
#952000
1$
11
06
1.
1'
#954000
1#
10
#956000
1"
13
#958000
1!
12
#960000
0&
0%
0$
0#
0"
0!
0/
04
01
00
03
02
16
0.
0'
#962000
1$
11
#964000
1#
10
#966000
1"
13
#968000
1!
12
05
06
1.
1'
#970000
0$
0#
0"
0!
01
00
03
02
15
16
0.
0'
#972000
1$
11
#974000
1#
10
#976000
1"
13
#978000
1!
12
05
06
1.
1'
#980000
0$
0#
0"
0!
01
00
03
02
15
16
0.
0'
#982000
1$
11
#984000
1#
10
#986000
1"
13
#988000
1!
12
05
06
1.
1'
#990000
1%
0$
0#
0"
0!
14
01
00
03
02
15
16
0.
0'
#992000
1$
11
#994000
1#
10
#996000
1"
13
05
06
1.
1'
#998000
1!
12
