hdu2020ShuDian/lab1/simulation/qsim/lab1.msim.vcd
$comment
	File created using the following command:
		vcd file lab1.msim.vcd -direction
$end
$date
	Tue May 11 22:48:41 2021
$end
$version
	ModelSim Version 10.5b
$end
$timescale
	1ps
$end

$scope module logic_mx_vlg_vec_tst $end
$var reg 1 ! a $end
$var reg 1 " b $end
$var wire 1 # ya $end
$var wire 1 $ yb $end
$var wire 1 % yc $end

$scope module i1 $end
$var wire 1 & gnd $end
$var wire 1 ' vcc $end
$var wire 1 ( unknown $end
$var tri1 1 ) devclrn $end
$var tri1 1 * devpor $end
$var tri1 1 + devoe $end
$var wire 1 , ya~output_o $end
$var wire 1 - yb~output_o $end
$var wire 1 . yc~output_o $end
$var wire 1 / a~input_o $end
$var wire 1 0 b~input_o $end
$var wire 1 1 inst~combout $end
$var wire 1 2 inst1~combout $end
$var wire 1 3 inst2~combout $end
$upscope $end
$upscope $end
$enddefinitions $end
#0
$dumpvars
0!
0"
1#
1$
0%
0&
1'
x(
1)
1*
1+
1,
1-
0.
0/
00
01
02
03
$end
#5000
1!
1/
12
13
1.
0-
0$
1%
#10000
0!
0/
02
03
0.
1-
1$
0%
#15000
1"
1!
10
1/
12
11
0,
0-
0$
0#
#20000
0!
0/
01
13
1.
1,
1#
1%
#25000
1!
1/
11
03
0.
0,
0#
0%
#30000
0"
0!
00
0/
02
01
1,
1-
1$
1#
#35000
1!
1/
12
13
1.
0-
0$
1%
#40000
0!
0/
02
03
0.
1-
1$
0%
#45000
1"
1!
10
1/
12
11
0,
0-
0$
0#
#50000
0!
0/
01
13
1.
1,
1#
1%
#55000
1!
1/
11
03
0.
0,
0#
0%
#60000
0"
0!
00
0/
02
01
1,
1-
1$
1#
#65000
1!
1/
12
13
1.
0-
0$
1%
#70000
0!
0/
02
03
0.
1-
1$
0%
#75000
1"
1!
10
1/
12
11
0,
0-
0$
0#
#80000
0!
0/
01
13
1.
1,
1#
1%
#85000
1!
1/
11
03
0.
0,
0#
0%
#90000
0"
0!
00
0/
02
01
1,
1-
1$
1#
#95000
1!
1/
12
13
1.
0-
0$
1%
#100000
0!
0/
02
03
0.
1-
1$
0%
#105000
1"
1!
10
1/
12
11
0,
0-
0$
0#
#110000
0!
0/
01
13
1.
1,
1#
1%
#115000
1!
1/
11
03
0.
0,
0#
0%
#120000
0"
0!
00
0/
02
01
1,
1-
1$
1#
#125000
1!
1/
12
13
1.
0-
0$
1%
#130000
0!
0/
02
03
0.
1-
1$
0%
#135000
1"
1!
10
1/
12
11
0,
0-
0$
0#
#140000
0!
0/
01
13
1.
1,
1#
1%
#145000
1!
1/
11
03
0.
0,
0#
0%
#150000
0"
0!
00
0/
02
01
1,
1-
1$
1#
#155000
1!
1/
12
13
1.
0-
0$
1%
#160000
0!
0/
02
03
0.
1-
1$
0%
#165000
1"
1!
10
1/
12
11
0,
0-
0$
0#
#170000
0!
0/
01
13
1.
1,
1#
1%
#175000
1!
1/
11
03
0.
0,
0#
0%
#180000
0"
0!
00
0/
02
01
1,
1-
1$
1#
#185000
1!
1/
12
13
1.
0-
0$
1%
#190000
0!
0/
02
03
0.
1-
1$
0%
#195000
1"
1!
10
1/
12
11
0,
0-
0$
0#
#200000
0!
0/
01
13
1.
1,
1#
1%
#205000
1!
1/
11
03
0.
0,
0#
0%
#210000
0"
0!
00
0/
02
01
1,
1-
1$
1#
#215000
1!
1/
12
13
1.
0-
0$
1%
#220000
0!
0/
02
03
0.
1-
1$
0%
#225000
1"
1!
10
1/
12
11
0,
0-
0$
0#
#230000
0!
0/
01
13
1.
1,
1#
1%
#235000
1!
1/
11
03
0.
0,
0#
0%
#240000
0"
0!
00
0/
02
01
1,
1-
1$
1#
#245000
1!
1/
12
13
1.
0-
0$
1%
#250000
0!
0/
02
03
0.
1-
1$
0%
#255000
1"
1!
10
1/
12
11
0,
0-
0$
0#
#260000
0!
0/
01
13
1.
1,
1#
1%
#265000
1!
1/
11
03
0.
0,
0#
0%
#270000
0"
0!
00
0/
02
01
1,
1-
1$
1#
#275000
1!
1/
12
13
1.
0-
0$
1%
#280000
0!
0/
02
03
0.
1-
1$
0%
#285000
1"
1!
10
1/
12
11
0,
0-
0$
0#
#290000
0!
0/
01
13
1.
1,
1#
1%
#295000
1!
1/
11
03
0.
0,
0#
0%
#300000
0"
0!
00
0/
02
01
1,
1-
1$
1#
#305000
1!
1/
12
13
1.
0-
0$
1%
#310000
0!
0/
02
03
0.
1-
1$
0%
#315000
1"
1!
10
1/
12
11
0,
0-
0$
0#
#320000
0!
0/
01
13
1.
1,
1#
1%
#325000
1!
1/
11
03
0.
0,
0#
0%
#330000
0"
0!
00
0/
02
01
1,
1-
1$
1#
#335000
1!
1/
12
13
1.
0-
0$
1%
#340000
0!
0/
02
03
0.
1-
1$
0%
#345000
1"
1!
10
1/
12
11
0,
0-
0$
0#
#350000
0!
0/
01
13
1.
1,
1#
1%
#355000
1!
1/
11
03
0.
0,
0#
0%
#360000
0"
0!
00
0/
02
01
1,
1-
1$
1#
#365000
1!
1/
12
13
1.
0-
0$
1%
#370000
0!
0/
02
03
0.
1-
1$
0%
#375000
1"
1!
10
1/
12
11
0,
0-
0$
0#
#380000
0!
0/
01
13
1.
1,
1#
1%
#385000
1!
1/
11
03
0.
0,
0#
0%
#390000
0"
0!
00
0/
02
01
1,
1-
1$
1#
#395000
1!
1/
12
13
1.
0-
0$
1%
#400000
0!
0/
02
03
0.
1-
1$
0%
#405000
1"
1!
10
1/
12
11
0,
0-
0$
0#
#410000
0!
0/
01
13
1.
1,
1#
1%
#415000
1!
1/
11
03
0.
0,
0#
0%
#420000
0"
0!
00
0/
02
01
1,
1-
1$
1#
#425000
1!
1/
12
13
1.
0-
0$
1%
#430000
0!
0/
02
03
0.
1-
1$
0%
#435000
1"
1!
10
1/
12
11
0,
0-
0$
0#
#440000
0!
0/
01
13
1.
1,
1#
1%
#445000
1!
1/
11
03
0.
0,
0#
0%
#450000
0"
0!
00
0/
02
01
1,
1-
1$
1#
#455000
1!
1/
12
13
1.
0-
0$
1%
#460000
0!
0/
02
03
0.
1-
1$
0%
#465000
1"
1!
10
1/
12
11
0,
0-
0$
0#
#470000
0!
0/
01
13
1.
1,
1#
1%
#475000
1!
1/
11
03
0.
0,
0#
0%
#480000
0"
0!
00
0/
02
01
1,
1-
1$
1#
#485000
1!
1/
12
13
1.
0-
0$
1%
#490000
0!
0/
02
03
0.
1-
1$
0%
#495000
1"
1!
10
1/
12
11
0,
0-
0$
0#
#500000
0!
0/
01
13
1.
1,
1#
1%
#505000
1!
1/
11
03
0.
0,
0#
0%
#510000
0"
0!
00
0/
02
01
1,
1-
1$
1#
#515000
1!
1/
12
13
1.
0-
0$
1%
#520000
0!
0/
02
03
0.
1-
1$
0%
#525000
1"
1!
10
1/
12
11
0,
0-
0$
0#
#530000
0!
0/
01
13
1.
1,
1#
1%
#535000
1!
1/
11
03
0.
0,
0#
0%
#540000
0"
0!
00
0/
02
01
1,
1-
1$
1#
#545000
1!
1/
12
13
1.
0-
0$
1%
#550000
0!
0/
02
03
0.
1-
1$
0%
#555000
1"
1!
10
1/
12
11
0,
0-
0$
0#
#560000
0!
0/
01
13
1.
1,
1#
1%
#565000
1!
1/
11
03
0.
0,
0#
0%
#570000
0"
0!
00
0/
02
01
1,
1-
1$
1#
#575000
1!
1/
12
13
1.
0-
0$
1%
#580000
0!
0/
02
03
0.
1-
1$
0%
#585000
1"
1!
10
1/
12
11
0,
0-
0$
0#
#590000
0!
0/
01
13
1.
1,
1#
1%
#595000
1!
1/
11
03
0.
0,
0#
0%
#600000
0"
0!
00
0/
02
01
1,
1-
1$
1#
#605000
1!
1/
12
13
1.
0-
0$
1%
#610000
0!
0/
02
03
0.
1-
1$
0%
#615000
1"
1!
10
1/
12
11
0,
0-
0$
0#
#620000
0!
0/
01
13
1.
1,
1#
1%
#625000
1!
1/
11
03
0.
0,
0#
0%
#630000
0"
0!
00
0/
02
01
1,
1-
1$
1#
#635000
1!
1/
12
13
1.
0-
0$
1%
#640000
0!
0/
02
03
0.
1-
1$
0%
#645000
1"
1!
10
1/
12
11
0,
0-
0$
0#
#650000
0!
0/
01
13
1.
1,
1#
1%
#655000
1!
1/
11
03
0.
0,
0#
0%
#660000
0"
0!
00
0/
02
01
1,
1-
1$
1#
#665000
1!
1/
12
13
1.
0-
0$
1%
#670000
0!
0/
02
03
0.
1-
1$
0%
#675000
1"
1!
10
1/
12
11
0,
0-
0$
0#
#680000
0!
0/
01
13
1.
1,
1#
1%
#685000
1!
1/
11
03
0.
0,
0#
0%
#690000
0"
0!
00
0/
02
01
1,
1-
1$
1#
#695000
1!
1/
12
13
1.
0-
0$
1%
#700000
0!
0/
02
03
0.
1-
1$
0%
#705000
1"
1!
10
1/
12
11
0,
0-
0$
0#
#710000
0!
0/
01
13
1.
1,
1#
1%
#715000
1!
1/
11
03
0.
0,
0#
0%
#720000
0"
0!
00
0/
02
01
1,
1-
1$
1#
#725000
1!
1/
12
13
1.
0-
0$
1%
#730000
0!
0/
02
03
0.
1-
1$
0%
#735000
1"
1!
10
1/
12
11
0,
0-
0$
0#
#740000
0!
0/
01
13
1.
1,
1#
1%
#745000
1!
1/
11
03
0.
0,
0#
0%
#750000
0"
0!
00
0/
02
01
1,
1-
1$
1#
#755000
1!
1/
12
13
1.
0-
0$
1%
#760000
0!
0/
02
03
0.
1-
1$
0%
#765000
1"
1!
10
1/
12
11
0,
0-
0$
0#
#770000
0!
0/
01
13
1.
1,
1#
1%
#775000
1!
1/
11
03
0.
0,
0#
0%
#780000
0"
0!
00
0/
02
01
1,
1-
1$
1#
#785000
1!
1/
12
13
1.
0-
0$
1%
#790000
0!
0/
02
03
0.
1-
1$
0%
#795000
1"
1!
10
1/
12
11
0,
0-
0$
0#
#800000
0!
0/
01
13
1.
1,
1#
1%
#805000
1!
1/
11
03
0.
0,
0#
0%
#810000
0"
0!
00
0/
02
01
1,
1-
1$
1#
#815000
1!
1/
12
13
1.
0-
0$
1%
#820000
0!
0/
02
03
0.
1-
1$
0%
#825000
1"
1!
10
1/
12
11
0,
0-
0$
0#
#830000
0!
0/
01
13
1.
1,
1#
1%
#835000
1!
1/
11
03
0.
0,
0#
0%
#840000
0"
0!
00
0/
02
01
1,
1-
1$
1#
#845000
1!
1/
12
13
1.
0-
0$
1%
#850000
0!
0/
02
03
0.
1-
1$
0%
#855000
1"
1!
10
1/
12
11
0,
0-
0$
0#
#860000
0!
0/
01
13
1.
1,
1#
1%
#865000
1!
1/
11
03
0.
0,
0#
0%
#870000
0"
0!
00
0/
02
01
1,
1-
1$
1#
#875000
1!
1/
12
13
1.
0-
0$
1%
#880000
0!
0/
02
03
0.
1-
1$
0%
#885000
1"
1!
10
1/
12
11
0,
0-
0$
0#
#890000
0!
0/
01
13
1.
1,
1#
1%
#895000
1!
1/
11
03
0.
0,
0#
0%
#900000
0"
0!
00
0/
02
01
1,
1-
1$
1#
#905000
1!
1/
12
13
1.
0-
0$
1%
#910000
0!
0/
02
03
0.
1-
1$
0%
#915000
1"
1!
10
1/
12
11
0,
0-
0$
0#
#920000
0!
0/
01
13
1.
1,
1#
1%
#925000
1!
1/
11
03
0.
0,
0#
0%
#930000
0"
0!
00
0/
02
01
1,
1-
1$
1#
#935000
1!
1/
12
13
1.
0-
0$
1%
#940000
0!
0/
02
03
0.
1-
1$
0%
#945000
1"
1!
10
1/
12
11
0,
0-
0$
0#
#950000
0!
0/
01
13
1.
1,
1#
1%
#955000
1!
1/
11
03
0.
0,
0#
0%
#960000
0"
0!
00
0/
02
01
1,
1-
1$
1#
#965000
1!
1/
12
13
1.
0-
0$
1%
#970000
0!
0/
02
03
0.
1-
1$
0%
#975000
1"
1!
10
1/
12
11
0,
0-
0$
0#
#980000
0!
0/
01
13
1.
1,
1#
1%
#985000
1!
1/
11
03
0.
0,
0#
0%
#990000
0"
0!
00
0/
02
01
1,
1-
1$
1#
#995000
1!
1/
12
13
1.
0-
0$
1%
